Voter,Affiliation,Forward_1,Forward_2,Center,Guard_1,Guard_2
Aaron Falk,Salt Lake Tribune,"James, LeBron -- CLE","Davis, Anthony -- NO","Gasol, Marc -- MEM","Harden, James -- HOU","Curry, Stephen -- GS"
Al Iannazzone,Newsday,"James, LeBron -- CLE","Davis, Anthony -- NO","Gasol, Marc -- MEM","Harden, James -- HOU","Curry, Stephen -- GS"
Alan Horton,WCCO 830-AM,"James, LeBron -- CLE","Davis, Anthony -- NO","Gasol, Marc -- MEM","Curry, Stephen -- GS","Harden, James -- HOU"
Andre Aldridge,Fox Sports South,"Davis, Anthony -- NO","James, LeBron -- CLE","Gasol, Marc -- MEM","Curry, Stephen -- GS","Harden, James -- HOU"
Antonio Harvey,Fox Sports Radio/620AM,"Aldridge, LaMarcus -- POR","James, LeBron -- CLE","Gasol, Marc -- MEM","Curry, Stephen -- GS","Harden, James -- HOU"
Bill Land,Fox Sports Southwest,"Davis, Anthony -- NO","James, LeBron -- CLE","Gasol, Marc -- MEM","Curry, Stephen -- GS","Harden, James -- HOU"
Bill Oram,Orange County Register,"Davis, Anthony -- NO","James, LeBron -- CLE","Gasol, Marc -- MEM","Curry, Stephen -- GS","Harden, James -- HOU"
Bill Reiter,Foxsports.com,"Davis, Anthony -- NO","James, LeBron -- CLE","Gasol, Marc -- MEM","Curry, Stephen -- GS","Harden, James -- HOU"
Bill Schoening,WOAI Radio,"Davis, Anthony -- NO","James, LeBron -- CLE","Cousins, DeMarcus -- SAC","Curry, Stephen -- GS","Harden, James -- HOU"
Bill Simmons,Grantland,"Davis, Anthony -- NO","James, LeBron -- CLE","Gasol, Marc -- MEM","Curry, Stephen -- GS","Harden, James -- HOU"
Bob Cooney,Philadelphia Daily News,"James, LeBron -- CLE","Davis, Anthony -- NO","Gasol, Marc -- MEM","Curry, Stephen -- GS","Harden, James -- HOU"
Bob Fitzgerald,Comcast SportsNet Bay Area,"James, LeBron -- CLE","Davis, Anthony -- NO","Gasol, Marc -- MEM","Curry, Stephen -- GS","Harden, James -- HOU"
Bob Rathbun,Fox Sports South,"James, LeBron -- CLE","Aldridge, LaMarcus -- POR","Davis, Anthony -- NO","Harden, James -- HOU","Curry, Stephen -- GS"
Brendan Brown,MSG Network,"James, LeBron -- CLE","Davis, Anthony -- NO","Gasol, Marc -- MEM","Harden, James -- HOU","Curry, Stephen -- GS"
Brian Davis,Fox Sports Oklahoma,"James, LeBron -- CLE","Davis, Anthony -- NO","Gasol, Marc -- MEM","Curry, Stephen -- GS","Westbrook, Russell -- OKC"
Brian Sieman,The Beast 980 AM FM,"James, LeBron -- CLE","Davis, Anthony -- NO","Gasol, Marc -- MEM","Harden, James -- HOU","Curry, Stephen -- GS"
Brian Windhorst,ESPN.com,"James, LeBron -- CLE","Davis, Anthony -- NO","Gasol, Marc -- MEM","Curry, Stephen -- GS","Harden, James -- HOU"
Candace Buckner,Indianapolis Star,"Duncan, Tim -- SA","James, LeBron -- CLE","Davis, Anthony -- NO","Harden, James -- HOU","Curry, Stephen -- GS"
Cedric Maxwell,WEEI Radio,"Aldridge, LaMarcus -- POR","James, LeBron -- CLE","Davis, Anthony -- NO","Curry, Stephen -- GS","Harden, James -- HOU"
Charles Gardner,Milwaukee Journal Sentinel,"James, LeBron -- CLE","Davis, Anthony -- NO","Gasol, Marc -- MEM","Curry, Stephen -- GS","Harden, James -- HOU"
Chris Broussard,ESPN The Magazine,"James, LeBron -- CLE","Davis, Anthony -- NO","Gasol, Pau -- CHI","Curry, Stephen -- GS","Harden, James -- HOU"
Chris Dempsey,Denver Post,"James, LeBron -- CLE","Davis, Anthony -- NO","Cousins, DeMarcus -- SAC","Harden, James -- HOU","Curry, Stephen -- GS"
Chris Denari,Fox Sports Indiana,"James, LeBron -- CLE","Davis, Anthony -- NO","Gasol, Marc -- MEM","Curry, Stephen -- GS","Harden, James -- HOU"
Chris Haynes,Northeast Ohio Media Group/Cleveland.com,"James, LeBron -- CLE","Davis, Anthony -- NO","Jordan, DeAndre -- LAC","Harden, James -- HOU","Curry, Stephen -- GS"
Chris Mannix,Sports Illustrated,"James, LeBron -- CLE","Davis, Anthony -- NO","Gasol, Marc -- MEM","Harden, James -- HOU","Curry, Stephen -- GS"
Chris Marlowe,Altitude Sports & Entertainment,"James, LeBron -- CLE","Davis, Anthony -- NO","Cousins, DeMarcus -- SAC","Curry, Stephen -- GS","Harden, James -- HOU"
Chris Sheridan,Sheridanhoops.com,"Davis, Anthony -- NO","James, LeBron -- CLE","Cousins, DeMarcus -- SAC","Curry, Stephen -- GS","Harden, James -- HOU"
Craig Ackerman,Sportstalk 790 AM,"James, LeBron -- CLE","Davis, Anthony -- NO","Cousins, DeMarcus -- SAC","Harden, James -- HOU","Curry, Stephen -- GS"
Dan Woike,Orange County Register,"Davis, Anthony -- NO","James, LeBron -- CLE","Gasol, Marc -- MEM","Harden, James -- HOU","Curry, Stephen -- GS"
Dante Marchitelli,Fox Sports Florida,"Davis, Anthony -- NO","James, LeBron -- CLE","Gasol, Marc -- MEM","Curry, Stephen -- GS","Harden, James -- HOU"
Darnell Mayberry,Oklahoman,"James, LeBron -- CLE","Davis, Anthony -- NO","Gasol, Marc -- MEM","Harden, James -- HOU","Curry, Stephen -- GS"
Dave Johnson,106.7 The Fan,"James, LeBron -- CLE","Davis, Anthony -- NO","Gasol, Pau -- CHI","Harden, James -- HOU","Curry, Stephen -- GS"
Dave McMenamin,ESPN.com,"James, LeBron -- CLE","Davis, Anthony -- NO","Horford, Al -- ATL","Harden, James -- HOU","Curry, Stephen -- GS"
David Aldridge,TNT,"James, LeBron -- CLE","Davis, Anthony -- NO","Jordan, DeAndre -- LAC","Curry, Stephen -- GS","Harden, James -- HOU"
David Mayo,Mlive Media Group,"James, LeBron -- CLE","Davis, Anthony -- NO","Cousins, DeMarcus -- SAC","Curry, Stephen -- GS","Westbrook, Russell -- OKC"
David Steele,Fox Sports Florida,"James, LeBron -- CLE","Davis, Anthony -- NO","Gasol, Marc -- MEM","Curry, Stephen -- GS","Harden, James -- HOU"
Dennis Neumann,ESPN 580 AM,"James, LeBron -- CLE","Davis, Anthony -- NO","Gasol, Marc -- MEM","Harden, James -- HOU","Curry, Stephen -- GS"
Diamond Leung,Bay Area News Group/Contra Costa Times,"James, LeBron -- CLE","Davis, Anthony -- NO","Gasol, Marc -- MEM","Curry, Stephen -- GS","Harden, James -- HOU"
Doris Burke,ESPN,"Davis, Anthony -- NO","James, LeBron -- CLE","Jordan, DeAndre -- LAC","Curry, Stephen -- GS","Harden, James -- HOU"
Doug Smith,The Toronto Star,"Davis, Anthony -- NO","James, LeBron -- CLE","Gasol, Marc -- MEM","Curry, Stephen -- GS","Harden, James -- HOU"
Dwain Price,Ft. Worth Star Telegam,"James, LeBron -- CLE","Aldridge, LaMarcus -- POR","Gasol, Marc -- MEM","Curry, Stephen -- GS","Harden, James -- HOU"
Eddie Johnson,Fox Sports Arizona,"James, LeBron -- CLE","Davis, Anthony -- NO","Cousins, DeMarcus -- SAC","Curry, Stephen -- GS","Harden, James -- HOU"
Eddie Sefko,Dallas Morning News,"James, LeBron -- CLE","Griffin, Blake -- LAC","Gasol, Marc -- MEM","Curry, Stephen -- GS","Harden, James -- HOU"
Eric Hasseltine,92.9 FM ESPN/680 AM,"James, LeBron -- CLE","Davis, Anthony -- NO","Cousins, DeMarcus -- SAC","Curry, Stephen -- GS","Harden, James -- HOU"
Ernie Johnson,TNT,"James, LeBron -- CLE","Davis, Anthony -- NO","Jordan, DeAndre -- LAC","Curry, Stephen -- GS","Harden, James -- HOU"
Ethan Skolnick,Bleacher Report,"James, LeBron -- CLE","Davis, Anthony -- NO","Cousins, DeMarcus -- SAC","Curry, Stephen -- GS","Harden, James -- HOU"
Fran Blinebury,NBA.com,"James, LeBron -- CLE","Davis, Anthony -- NO","Gasol, Marc -- MEM","Harden, James -- HOU","Curry, Stephen -- GS"
Frank Isola,Sirius Radio/New York Daily News,"James, LeBron -- CLE","Harden, James -- HOU","Davis, Anthony -- NO","Westbrook, Russell -- OKC","Curry, Stephen -- GS"
Gary Gerould,Comcast SportsNet-CA,"Davis, Anthony -- NO","James, LeBron -- CLE","Gasol, Marc -- MEM","Curry, Stephen -- GS","Harden, James -- HOU"
Gary Washburn,Boston Globe,"Aldridge, LaMarcus -- POR","James, LeBron -- CLE","Gasol, Pau -- CHI","Harden, James -- HOU","Curry, Stephen -- GS"
George Blaha,WMGC / Fox Sports Detroit,"James, LeBron -- CLE","Davis, Anthony -- NO","Gasol, Pau -- CHI","Curry, Stephen -- GS","Harden, James -- HOU"
Glenn Consor,106.7 The Fan,"James, LeBron -- CLE","Aldridge, LaMarcus -- POR","Davis, Anthony -- NO","Curry, Stephen -- GS","Harden, James -- HOU"
Grant Napear,Comcast SportsNet-CA,"Aldridge, LaMarcus -- POR","James, LeBron -- CLE","Gasol, Marc -- MEM","Curry, Stephen -- GS","Harden, James -- HOU"
Howard Beck,Bleacher Report,"James, LeBron -- CLE","Davis, Anthony -- NO","Gasol, Marc -- MEM","Curry, Stephen -- GS","Harden, James -- HOU"
Hubie Brown,ESPN,"James, LeBron -- CLE","Davis, Anthony -- NO","Jordan, DeAndre -- LAC","Harden, James -- HOU","Curry, Stephen -- GS"
Israel Guttierez,ESPN.com,"James, LeBron -- CLE","Davis, Anthony -- NO","Duncan, Tim -- SA","Curry, Stephen -- GS","Harden, James -- HOU"
JA Adande,ESPN.com,"James, LeBron -- CLE","Davis, Anthony -- NO","Gasol, Marc -- MEM","Curry, Stephen -- GS","Harden, James -- HOU"
Jabari Young,Comcast SportsNet NW,"James, LeBron -- CLE","Aldridge, LaMarcus -- POR","Gasol, Marc -- MEM","Harden, James -- HOU","Curry, Stephen -- GS"
Jason Jones,Sacramento Bee,"James, LeBron -- CLE","Davis, Anthony -- NO","Cousins, DeMarcus -- SAC","Harden, James -- HOU","Curry, Stephen -- GS"
Jason Lloyd,Akron Beacon Journal,"Davis, Anthony -- NO","James, LeBron -- CLE","Gasol, Marc -- MEM","Curry, Stephen -- GS","Harden, James -- HOU"
Jeff McDonald,San Antonio Express-News,"Davis, Anthony -- NO","James, LeBron -- CLE","Duncan, Tim -- SA","Curry, Stephen -- GS","Harden, James -- HOU"
Jeff Zillgitt,USA Today,"James, LeBron -- CLE","Davis, Anthony -- NO","Gasol, Pau -- CHI","Curry, Stephen -- GS","Harden, James -- HOU"
Jerry Zgoda,Minneapolis Star Tribune,"Davis, Anthony -- NO","James, LeBron -- CLE","Gasol, Marc -- MEM","Curry, Stephen -- GS","Harden, James -- HOU"
Jim Paschke,Fox Sports Wisconsin,"Harden, James -- HOU","James, LeBron -- CLE","Davis, Anthony -- NO","Curry, Stephen -- GS","Westbrook, Russell -- OKC"
Jim Petersen,Fox Sports North,"James, LeBron -- CLE","Davis, Anthony -- NO","Gasol, Marc -- MEM","Harden, James -- HOU","Curry, Stephen -- GS"
Jody Genessy,Deseret News,"Davis, Anthony -- NO","James, LeBron -- CLE","Gasol, Marc -- MEM","Curry, Stephen -- GS","Harden, James -- HOU"
Joe Freeman,The Oregonian,"Aldridge, LaMarcus -- POR","James, LeBron -- CLE","Gasol, Marc -- MEM","Curry, Stephen -- GS","Harden, James -- HOU"
Joe Goodman,Miami Herald,"James, LeBron -- CLE","Aldridge, LaMarcus -- POR","Gasol, Marc -- MEM","Curry, Stephen -- GS","Harden, James -- HOU"
Joel Meyers,Fox Sports New Orleans,"Davis, Anthony -- NO","James, LeBron -- CLE","Gasol, Marc -- MEM","Curry, Stephen -- GS","Harden, James -- HOU"
John Reid,New Orleans Times Picayune,"Davis, Anthony -- NO","James, LeBron -- CLE","Gasol, Marc -- MEM","Curry, Stephen -- GS","Harden, James -- HOU"
Jon Barry,ESPN Radio,"James, LeBron -- CLE","Davis, Anthony -- NO","Jordan, DeAndre -- LAC","Curry, Stephen -- GS","Harden, James -- HOU"
Jonathan Feigen,Houston Chronicle,"Davis, Anthony -- NO","James, LeBron -- CLE","Jordan, DeAndre -- LAC","Curry, Stephen -- GS","Harden, James -- HOU"
Jose Paneda,WAQI Radio,"James, LeBron -- CLE","Davis, Anthony -- NO","Jordan, DeAndre -- LAC","Harden, James -- HOU","Curry, Stephen -- GS"
Keith Pompey,Philadelphia Inquirer,"Davis, Anthony -- NO","James, LeBron -- CLE","Cousins, DeMarcus -- SAC","Harden, James -- HOU","Curry, Stephen -- GS"
Ken Berger,CBSSports.com,"James, LeBron -- CLE","Davis, Anthony -- NO","Duncan, Tim -- SA","Curry, Stephen -- GS","Harden, James -- HOU"
Kevin Arnovitz,ESPN.com,"Davis, Anthony -- NO","James, LeBron -- CLE","Gasol, Marc -- MEM","Curry, Stephen -- GS","Harden, James -- HOU"
Kevin Calabro,ESPN Radio,"Davis, Anthony -- NO","James, LeBron -- CLE","Jordan, DeAndre -- LAC","Harden, James -- HOU","Curry, Stephen -- GS"
Kevin Ding,Bleacher Report,"Davis, Anthony -- NO","James, LeBron -- CLE","Gasol, Marc -- MEM","Paul, Chris -- LAC","Curry, Stephen -- GS"
Lang Whitaker,NBA.com,"James, LeBron -- CLE","Davis, Anthony -- NO","Gasol, Marc -- MEM","Harden, James -- HOU","Curry, Stephen -- GS"
Leo Rautins,SportsNet/TSN,"James, LeBron -- CLE","Davis, Anthony -- NO","Gasol, Marc -- MEM","Curry, Stephen -- GS","Harden, James -- HOU"
Marc Spears,Yahoo! Sports,"James, LeBron -- CLE","Davis, Anthony -- NO","Gasol, Marc -- MEM","Curry, Stephen -- GS","Harden, James -- HOU"
Marc Stein,ESPN.com,"James, LeBron -- CLE","Davis, Anthony -- NO","Duncan, Tim -- SA","Curry, Stephen -- GS","Harden, James -- HOU"
Marc Zumoff,Comcast SportsNet,"Davis, Anthony -- NO","James, LeBron -- CLE","Gasol, Marc -- MEM","Curry, Stephen -- GS","Harden, James -- HOU"
Mark Boyle,107.5/1070 The Fan,"James, LeBron -- CLE","Davis, Anthony -- NO","Gasol, Marc -- MEM","Curry, Stephen -- GS","Harden, James -- HOU"
Mark Followill,TXA-21/Fox Sports Net,"Davis, Anthony -- NO","James, LeBron -- CLE","Gasol, Marc -- MEM","Curry, Stephen -- GS","Harden, James -- HOU"
Mark Medina,LA Daily News,"James, LeBron -- CLE","Davis, Anthony -- NO","Gasol, Marc -- MEM","Curry, Stephen -- GS","Harden, James -- HOU"
Marv Albert,TNT,"James, LeBron -- CLE","Gasol, Pau -- CHI","Gasol, Marc -- MEM","Curry, Stephen -- GS","Harden, James -- HOU"
Matt Bullard,Root Sports Southwest,"James, LeBron -- CLE","Davis, Anthony -- NO","Cousins, DeMarcus -- SAC","Curry, Stephen -- GS","Harden, James -- HOU"
Matt Pinto,WWLS / 98.1,"Davis, Anthony -- NO","James, LeBron -- CLE","Cousins, DeMarcus -- SAC","Curry, Stephen -- GS","Westbrook, Russell -- OKC"
Matt Winer,NBA TV,"James, LeBron -- CLE","Davis, Anthony -- NO","Gasol, Marc -- MEM","Curry, Stephen -- GS","Harden, James -- HOU"
Michael Wilbon,ESPN,"Davis, Anthony -- NO","James, LeBron -- CLE","Jordan, DeAndre -- LAC","Curry, Stephen -- GS","Harden, James -- HOU"
Mike Breen,ABC Sports,"James, LeBron -- CLE","Davis, Anthony -- NO","Gasol, Marc -- MEM","Curry, Stephen -- GS","Harden, James -- HOU"
Mike Fratello,TNT,"James, LeBron -- CLE","Davis, Anthony -- NO","Gasol, Pau -- CHI","Harden, James -- HOU","Curry, Stephen -- GS"
Mike Gorman,Comcast SportsNet,"James, LeBron -- CLE","Harden, James -- HOU","Davis, Anthony -- NO","Westbrook, Russell -- OKC","Curry, Stephen -- GS"
Mike Monroe,San Antonio Express-News,"James, LeBron -- CLE","Davis, Anthony -- NO","Gasol, Marc -- MEM","Harden, James -- HOU","Curry, Stephen -- GS"
Mike Tirico,ESPN,"James, LeBron -- CLE","Davis, Anthony -- NO","Gasol, Marc -- MEM","Curry, Stephen -- GS","Harden, James -- HOU"
Neil Funk,Comcast SportsNet Chicago,"James, LeBron -- CLE","Harden, James -- HOU","Davis, Anthony -- NO","Westbrook, Russell -- OKC","Curry, Stephen -- GS"
Nick Friedell,ESPNChicago.com,"James, LeBron -- CLE","Harden, James -- HOU","Davis, Anthony -- NO","Westbrook, Russell -- OKC","Curry, Stephen -- GS"
Paul Coro,Arizona Republic,"James, LeBron -- CLE","Aldridge, LaMarcus -- POR","Davis, Anthony -- NO","Curry, Stephen -- GS","Harden, James -- HOU"
Paul Jones,TSN 1050/Sportsnet 590 The Fan,"Gasol, Pau -- CHI","James, LeBron -- CLE","Davis, Anthony -- NO","Harden, James -- HOU","Curry, Stephen -- GS"
Pete Pranica,Fox Sports Tennessee,"James, LeBron -- CLE","Davis, Anthony -- NO","Gasol, Marc -- MEM","Harden, James -- HOU","Curry, Stephen -- GS"
Phil Chenier,Comcast SportsNet Mid-Atlantic,"James, LeBron -- CLE","Davis, Anthony -- NO","Cousins, DeMarcus -- SAC","Curry, Stephen -- GS","Harden, James -- HOU"
Ralph Lawler,Prime Ticket,"James, LeBron -- CLE","Griffin, Blake -- LAC","Cousins, DeMarcus -- SAC","Curry, Stephen -- GS","Harden, James -- HOU"
Ramona Shelburne,ESPN.com,"James, LeBron -- CLE","Davis, Anthony -- NO","Gasol, Marc -- MEM","Curry, Stephen -- GS","Harden, James -- HOU"
Ric Bucher,Bleacher Report,"Davis, Anthony -- NO","James, LeBron -- CLE","Gasol, Marc -- MEM","Harden, James -- HOU","Curry, Stephen -- GS"
Rick Bonnell,Charlotte Observer,"James, LeBron -- CLE","Davis, Anthony -- NO","Gasol, Pau -- CHI","Harden, James -- HOU","Curry, Stephen -- GS"
Rod Boone,Newsday,"James, LeBron -- CLE","Davis, Anthony -- NO","Gasol, Pau -- CHI","Harden, James -- HOU","Curry, Stephen -- GS"
Ron Boone,ROOT Sports,"James, LeBron -- CLE","Davis, Anthony -- NO","Gasol, Marc -- MEM","Curry, Stephen -- GS","Harden, James -- HOU"
Ron Tillery,Memphis Commercial Appeal,"James, LeBron -- CLE","Davis, Anthony -- NO","Gasol, Marc -- MEM","Harden, James -- HOU","Curry, Stephen -- GS"
Sage Steele,ABC Sports,"James, LeBron -- CLE","Davis, Anthony -- NO","Cousins, DeMarcus -- SAC","Curry, Stephen -- GS","Harden, James -- HOU"
Sam Amick,USA Today,"James, LeBron -- CLE","Davis, Anthony -- NO","Gasol, Marc -- MEM","Harden, James -- HOU","Curry, Stephen -- GS"
Sam Smith,Bulls.com,"James, LeBron -- CLE","Davis, Anthony -- NO","Gasol, Pau -- CHI","Curry, Stephen -- GS","Harden, James -- HOU"
Scott Hastings,Altitude Sports & Entertainment,"James, LeBron -- CLE","Aldridge, LaMarcus -- POR","Davis, Anthony -- NO","Curry, Stephen -- GS","Harden, James -- HOU"
Sean Deveney,The Sporting News,"Davis, Anthony -- NO","James, LeBron -- CLE","Jordan, DeAndre -- LAC","Curry, Stephen -- GS","Harden, James -- HOU"
Sean Grande,WEEI Radio,"James, LeBron -- CLE","Davis, Anthony -- NO","Cousins, DeMarcus -- SAC","Harden, James -- HOU","Curry, Stephen -- GS"
Sean Kelley,WWL 105.3 FM,"James, LeBron -- CLE","Davis, Anthony -- NO","Gasol, Pau -- CHI","Harden, James -- HOU","Curry, Stephen -- GS"
Stacey King,Comcast SportsNet Chicago,"Davis, Anthony -- NO","James, LeBron -- CLE","Gasol, Pau -- CHI","Harden, James -- HOU","Curry, Stephen -- GS"
Stefan Bondy,New York Daily News,"James, LeBron -- CLE","Davis, Anthony -- NO","Gasol, Marc -- MEM","Harden, James -- HOU","Curry, Stephen -- GS"
Stephanie Ready,Fox Sports Carolinas/SportSouth,"James, LeBron -- CLE","Davis, Anthony -- NO","Cousins, DeMarcus -- SAC","Curry, Stephen -- GS","Harden, James -- HOU"
Steve Aschburner,NBA.com,"James, LeBron -- CLE","Davis, Anthony -- NO","Gasol, Marc -- MEM","Curry, Stephen -- GS","Harden, James -- HOU"
Steve Holman,Hawks Radio Network,"James, LeBron -- CLE","Davis, Anthony -- NO","Gasol, Pau -- CHI","Curry, Stephen -- GS","Harden, James -- HOU"
Steve Martin,Fox Sports Carolinas/SportSouth,"James, LeBron -- CLE","Davis, Anthony -- NO","Gasol, Pau -- CHI","Curry, Stephen -- GS","Harden, James -- HOU"
Steve Popper,The Record,"Harden, James -- HOU","James, LeBron -- CLE","Davis, Anthony -- NO","Curry, Stephen -- GS","Westbrook, Russell -- OKC"
Ted Davis,WTMJ Radio,"Harden, James -- HOU","James, LeBron -- CLE","Davis, Anthony -- NO","Westbrook, Russell -- OKC","Curry, Stephen -- GS"
Tim Bontemps,New York Post,"James, LeBron -- CLE","Davis, Anthony -- NO","Duncan, Tim -- SA","Curry, Stephen -- GS","Harden, James -- HOU"
Tim Roye,KNBR Radio,"James, LeBron -- CLE","Aldridge, LaMarcus -- POR","Davis, Anthony -- NO","Curry, Stephen -- GS","Harden, James -- HOU"
Tony Fiorentino,Sun Sports,"James, LeBron -- CLE","Davis, Anthony -- NO","Jordan, DeAndre -- LAC","Harden, James -- HOU","Curry, Stephen -- GS"
Vince Ellis,Detroit Free Press,"Davis, Anthony -- NO","James, LeBron -- CLE","Gasol, Marc -- MEM","Harden, James -- HOU","Curry, Stephen -- GS"
Zach Lowe,Grantland,"Davis, Anthony -- NO","James, LeBron -- CLE","Gasol, Marc -- MEM","Curry, Stephen -- GS","Harden, James -- HOU"
