Voter,Affiliation,Forward_1,Forward_2,Center,Guard_1,Guard_2
Aaron Falk,Salt Lake Tribune,"Green, Draymond -- GS","Leonard, Kawhi -- SA","Gobert, Rudy -- UTA","Allen, Tony -- MEM","Paul, Chris -- LAC"
Adrian Chavarria,KEYH 850 AM,"Green, Draymond -- GS","Leonard, Kawhi -- SA","Jordan, DeAndre -- LAC","Allen, Tony -- MEM","Paul, Chris -- LAC"
Alan Horton,WCCO 830-AM,"Leonard, Kawhi -- SA","Green, Draymond -- GS","Bogut, Andrew -- GS","Butler, Jimmy -- CHI","Allen, Tony -- MEM"
Andre Aldridge,Fox Sports South,"Green, Draymond -- GS","Davis, Anthony -- NO","Jordan, DeAndre -- LAC","Paul, Chris -- LAC","Allen, Tony -- MEM"
Andy Vasquez,Bergen Record,"Leonard, Kawhi -- SA","Green, Draymond -- GS","Bogut, Andrew -- GS","Allen, Tony -- MEM","Paul, Chris -- LAC"
Anthony Slater,Oklahoman,"Leonard, Kawhi -- SA","Green, Draymond -- GS","Jordan, DeAndre -- LAC","Allen, Tony -- MEM","Paul, Chris -- LAC"
Antonio Harvey,Fox Sports Radio/620AM,"Leonard, Kawhi -- SA","Davis, Anthony -- NO","Jordan, DeAndre -- LAC","Allen, Tony -- MEM","Paul, Chris -- LAC"
Bill Land,Fox Sports Southwest,"Leonard, Kawhi -- SA","Davis, Anthony -- NO","Jordan, DeAndre -- LAC","Westbrook, Russell -- OKC","Butler, Jimmy -- CHI"
Bill Oram,Orange County Register,"Davis, Anthony -- NO","Green, Draymond -- GS","Jordan, DeAndre -- LAC","Leonard, Kawhi -- SA","Allen, Tony -- MEM"
Bill Reiter,Foxsports.com,"Leonard, Kawhi -- SA","Green, Draymond -- GS","Bogut, Andrew -- GS","Paul, Chris -- LAC","Butler, Jimmy -- CHI"
Bill Schoening,WOAI Radio,"Leonard, Kawhi -- SA","Davis, Anthony -- NO","Jordan, DeAndre -- LAC","Beverley, Patrick -- HOU","Allen, Tony -- MEM"
Bill Simmons,Grantland,"Green, Draymond -- GS","Leonard, Kawhi -- SA","Gobert, Rudy -- UTA","Allen, Tony -- MEM","Paul, Chris -- LAC"
Bill Worrell,Root Sports Southwest,"Ariza, Trevor -- HOU","Green, Draymond -- GS","Jordan, DeAndre -- LAC","Butler, Jimmy -- CHI","Conley, Mike -- MEM"
Bob Cooney,Philadelphia Daily News,"Green, Draymond -- GS","Davis, Anthony -- NO","Jordan, DeAndre -- LAC","Leonard, Kawhi -- SA","Allen, Tony -- MEM"
Bob Fitzgerald,Comcast SportsNet Bay Area,"Green, Draymond -- GS","Leonard, Kawhi -- SA","Bogut, Andrew -- GS","Allen, Tony -- MEM","Paul, Chris -- LAC"
Bob Rathbun,Fox Sports South,"Leonard, Kawhi -- SA","Green, Draymond -- GS","Jordan, DeAndre -- LAC","Paul, Chris -- LAC","Teague, Jeff -- ATL"
Brian Davis,Fox Sports Oklahoma,"Green, Draymond -- GS","Leonard, Kawhi -- SA","Jordan, DeAndre -- LAC","Paul, Chris -- LAC","Westbrook, Russell -- OKC"
Brian Sieman,The Beast 980 AM FM,"Leonard, Kawhi -- SA","Green, Draymond -- GS","Jordan, DeAndre -- LAC","Allen, Tony -- MEM","Paul, Chris -- LAC"
Brian Windhorst,ESPN.com,"Green, Draymond -- GS","Davis, Anthony -- NO","Gobert, Rudy -- UTA","Allen, Tony -- MEM","Leonard, Kawhi -- SA"
Candace Buckner,Indianapolis Star,"Green, Draymond -- GS","Leonard, Kawhi -- SA","Jordan, DeAndre -- LAC","Butler, Jimmy -- CHI","Allen, Tony -- MEM"
Charles Gardner,Milwaukee Journal Sentinel,"Green, Draymond -- GS","Leonard, Kawhi -- SA","Bogut, Andrew -- GS","Butler, Jimmy -- CHI","Paul, Chris -- LAC"
Chris Broussard,ESPN The Magazine,"Davis, Anthony -- NO","Green, Draymond -- GS","Jordan, DeAndre -- LAC","Bradley, Avery -- BOS","Conley, Mike -- MEM"
Chris Denari,Fox Sports Indiana,"Green, Draymond -- GS","Leonard, Kawhi -- SA","Jordan, DeAndre -- LAC","Westbrook, Russell -- OKC","Butler, Jimmy -- CHI"
Chris Mannix,Sports Illustrated,"Green, Draymond -- GS","Leonard, Kawhi -- SA","Bogut, Andrew -- GS","Allen, Tony -- MEM","Paul, Chris -- LAC"
Chris Marlowe,Altitude Sports & Entertainment,"Leonard, Kawhi -- SA","Davis, Anthony -- NO","Jordan, DeAndre -- LAC","Paul, Chris -- LAC","Allen, Tony -- MEM"
Chris Sheridan,Sheridanhoops.com,"Green, Draymond -- GS","Leonard, Kawhi -- SA","Jordan, DeAndre -- LAC","Butler, Jimmy -- CHI","Westbrook, Russell -- OKC"
Chuck Cooperstein,ESPN 103.3,"Leonard, Kawhi -- SA","Green, Draymond -- GS","Bogut, Andrew -- GS","Allen, Tony -- MEM","Paul, Chris -- LAC"
Chuck Swirsky,WMVP AM 1000,"Davis, Anthony -- NO","Green, Draymond -- GS","Bogut, Andrew -- GS","Butler, Jimmy -- CHI","Leonard, Kawhi -- SA"
Dante Marchitelli,Fox Sports Florida,"Green, Draymond -- GS","Leonard, Kawhi -- SA","Jordan, DeAndre -- LAC","Butler, Jimmy -- CHI","Paul, Chris -- LAC"
Darnell Mayberry,Oklahoman,"Green, Draymond -- GS","Leonard, Kawhi -- SA","Bogut, Andrew -- GS","Butler, Jimmy -- CHI","Bradley, Avery -- BOS"
Dave Johnson,106.7 The Fan,"Green, Draymond -- GS","Leonard, Kawhi -- SA","Jordan, DeAndre -- LAC","Wall, John -- WAS","Allen, Tony -- MEM"
Dave McMenamin,ESPN.com,"Leonard, Kawhi -- SA","Green, Draymond -- GS","Bogut, Andrew -- GS","Allen, Tony -- MEM","Paul, Chris -- LAC"
David Aldridge,TNT,"Green, Draymond -- GS","Leonard, Kawhi -- SA","Bogut, Andrew -- GS","Allen, Tony -- MEM","Wall, John -- WAS"
David Mayo,Mlive Media Group,"Leonard, Kawhi -- SA","James, LeBron -- CLE","Davis, Anthony -- NO","Allen, Tony -- MEM","Paul, Chris -- LAC"
Dennis Neumann,ESPN 580 AM,"Green, Draymond -- GS","Leonard, Kawhi -- SA","Davis, Anthony -- NO","Butler, Jimmy -- CHI","Paul, Chris -- LAC"
Diamond Leung,Bay Area News Group/Contra Costa Times,"Green, Draymond -- GS","Leonard, Kawhi -- SA","Bogut, Andrew -- GS","Paul, Chris -- LAC","Middleton, Khris -- MIL"
Doris Burke,ESPN,"Green, Draymond -- GS","Leonard, Kawhi -- SA","Jordan, DeAndre -- LAC","Paul, Chris -- LAC","Butler, Jimmy -- CHI"
Doug Smith,The Toronto Star,"Leonard, Kawhi -- SA","Green, Draymond -- GS","Bogut, Andrew -- GS","Butler, Jimmy -- CHI","Paul, Chris -- LAC"
Dwain Price,Ft. Worth Star Telegam,"James, LeBron -- CLE","Leonard, Kawhi -- SA","Jordan, DeAndre -- LAC","Allen, Tony -- MEM","Westbrook, Russell -- OKC"
Eddie Johnson,Fox Sports Arizona,"Davis, Anthony -- NO","Green, Draymond -- GS","Jordan, DeAndre -- LAC","Allen, Tony -- MEM","Paul, Chris -- LAC"
Eric Hasseltine,92.9 FM ESPN/680 AM,"Leonard, Kawhi -- SA","Green, Draymond -- GS","Bogut, Andrew -- GS","Allen, Tony -- MEM","Butler, Jimmy -- CHI"
Ernie Johnson,TNT,"Davis, Anthony -- NO","Leonard, Kawhi -- SA","Jordan, DeAndre -- LAC","Allen, Tony -- MEM","Butler, Jimmy -- CHI"
Ethan Skolnick,Bleacher Report,"Leonard, Kawhi -- SA","Green, Draymond -- GS","Jordan, DeAndre -- LAC","Paul, Chris -- LAC","Allen, Tony -- MEM"
Fran Blinebury,NBA.com,"Duncan, Tim -- SA","Leonard, Kawhi -- SA","Bogut, Andrew -- GS","Allen, Tony -- MEM","Green, Draymond -- GS"
Frank Isola,Sirius Radio/New York Daily News,"Leonard, Kawhi -- SA","Green, Draymond -- GS","Jordan, DeAndre -- LAC","Butler, Jimmy -- CHI","Paul, Chris -- LAC"
Fred McLeod,Fox Sports Ohio,"Green, Draymond -- GS","Noel, Nerlens -- PHI","Jordan, DeAndre -- LAC","Allen, Tony -- MEM","Leonard, Kawhi -- SA"
Gary Gerould,Comcast SportsNet-CA,"Green, Draymond -- GS","Leonard, Kawhi -- SA","Jordan, DeAndre -- LAC","Allen, Tony -- MEM","Butler, Jimmy -- CHI"
Gary Washburn,Boston Globe,"Green, Draymond -- GS","Leonard, Kawhi -- SA","Jordan, DeAndre -- LAC","Paul, Chris -- LAC","Westbrook, Russell -- OKC"
George Blaha,WMGC / Fox Sports Detroit,"Leonard, Kawhi -- SA","Green, Draymond -- GS","Jordan, DeAndre -- LAC","Butler, Jimmy -- CHI","Allen, Tony -- MEM"
Glenn Consor,106.7 The Fan,"Davis, Anthony -- NO","Green, Draymond -- GS","Jordan, DeAndre -- LAC","Paul, Chris -- LAC","Kidd-Gilchrist, Michael -- CHA"
Grant Napear,Comcast SportsNet-CA,"Leonard, Kawhi -- SA","Green, Draymond -- GS","Bogut, Andrew -- GS","Paul, Chris -- LAC","Butler, Jimmy -- CHI"
Howard Beck,Bleacher Report,"Leonard, Kawhi -- SA","Green, Draymond -- GS","Bogut, Andrew -- GS","Butler, Jimmy -- CHI","Paul, Chris -- LAC"
Hubie Brown,ESPN,"Davis, Anthony -- NO","Leonard, Kawhi -- SA","Jordan, DeAndre -- LAC","Butler, Jimmy -- CHI","Green, Draymond -- GS"
Ian Eagle,YES Network,"Green, Draymond -- GS","Leonard, Kawhi -- SA","Davis, Anthony -- NO","Butler, Jimmy -- CHI","Allen, Tony -- MEM"
Israel Guttierez,ESPN.com,"Green, Draymond -- GS","Duncan, Tim -- SA","Bogut, Andrew -- GS","Leonard, Kawhi -- SA","Allen, Tony -- MEM"
JA Adande,ESPN.com,"Green, Draymond -- GS","Davis, Anthony -- NO","Jordan, DeAndre -- LAC","Paul, Chris -- LAC","Allen, Tony -- MEM"
Jabari Young,Comcast SportsNet NW,"James, LeBron -- CLE","Green, Draymond -- GS","Jordan, DeAndre -- LAC","Leonard, Kawhi -- SA","Westbrook, Russell -- OKC"
Jason Jackson,Sun Sports,"Leonard, Kawhi -- SA","Davis, Anthony -- NO","Jordan, DeAndre -- LAC","Curry, Stephen -- GS","Allen, Tony -- MEM"
Jason Jones,Sacramento Bee,"Green, Draymond -- GS","Davis, Anthony -- NO","Jordan, DeAndre -- LAC","Leonard, Kawhi -- SA","Allen, Tony -- MEM"
Jason Kosmicki,Altitude Radio Network,"Leonard, Kawhi -- SA","Davis, Anthony -- NO","Jordan, DeAndre -- LAC","Butler, Jimmy -- CHI","Allen, Tony -- MEM"
Jason Lloyd,Akron Beacon Journal,"Davis, Anthony -- NO","Leonard, Kawhi -- SA","Jordan, DeAndre -- LAC","Allen, Tony -- MEM","Bradley, Avery -- BOS"
Jeff McDonald,San Antonio Express-News,"Leonard, Kawhi -- SA","Davis, Anthony -- NO","Jordan, DeAndre -- LAC","Paul, Chris -- LAC","Allen, Tony -- MEM"
Jeff Zillgitt,USA Today,"Green, Draymond -- GS","Leonard, Kawhi -- SA","Bogut, Andrew -- GS","Allen, Tony -- MEM","Wall, John -- WAS"
Jerry Zgoda,Minneapolis Star Tribune,"Davis, Anthony -- NO","Green, Draymond -- GS","Jordan, DeAndre -- LAC","Leonard, Kawhi -- SA","Allen, Tony -- MEM"
Jim Barnett,Comcast SportsNet Bay Area,"Green, Draymond -- GS","Leonard, Kawhi -- SA","Bogut, Andrew -- GS","Butler, Jimmy -- CHI","Allen, Tony -- MEM"
Jim Paschke,Fox Sports Wisconsin,"Davis, Anthony -- NO","Green, Draymond -- GS","Jordan, DeAndre -- LAC","Allen, Tony -- MEM","Leonard, Kawhi -- SA"
Jim Petersen,Fox Sports North,"Leonard, Kawhi -- SA","Green, Draymond -- GS","Bogut, Andrew -- GS","Allen, Tony -- MEM","Paul, Chris -- LAC"
Jody Genessy,Deseret News,"Green, Draymond -- GS","Leonard, Kawhi -- SA","Gobert, Rudy -- UTA","Paul, Chris -- LAC","Allen, Tony -- MEM"
Joe Freeman,The Oregonian,"Green, Draymond -- GS","Davis, Anthony -- NO","Jordan, DeAndre -- LAC","Paul, Chris -- LAC","Bradley, Avery -- BOS"
Joe Goodman,Miami Herald,"Davis, Anthony -- NO","Green, Draymond -- GS","Jordan, DeAndre -- LAC","Allen, Tony -- MEM","Wall, John -- WAS"
Joel Meyers,Fox Sports New Orleans,"Davis, Anthony -- NO","Green, Draymond -- GS","Jordan, DeAndre -- LAC","Allen, Tony -- MEM","Leonard, Kawhi -- SA"
John Denton,OrlandoMagic.com,"Davis, Anthony -- NO","Leonard, Kawhi -- SA","Jordan, DeAndre -- LAC","Westbrook, Russell -- OKC","Paul, Chris -- LAC"
John Reid,New Orleans Times Picayune,"Leonard, Kawhi -- SA","Davis, Anthony -- NO","Jordan, DeAndre -- LAC","Allen, Tony -- MEM","Paul, Chris -- LAC"
Jon Barry,ESPN Radio,"Green, Draymond -- GS","Leonard, Kawhi -- SA","Jordan, DeAndre -- LAC","Paul, Chris -- LAC","Westbrook, Russell -- OKC"
Jonathan Feigen,Houston Chronicle,"Leonard, Kawhi -- SA","Green, Draymond -- GS","Bogut, Andrew -- GS","Butler, Jimmy -- CHI","Allen, Tony -- MEM"
KC Johnson,Chicago Tribune,"Davis, Anthony -- NO","Leonard, Kawhi -- SA","Bogut, Andrew -- GS","Butler, Jimmy -- CHI","Paul, Chris -- LAC"
Keith Pompey,Philadelphia Inquirer,"Green, Draymond -- GS","Davis, Anthony -- NO","Jordan, DeAndre -- LAC","Leonard, Kawhi -- SA","Westbrook, Russell -- OKC"
Ken Berger,CBSSports.com,"Green, Draymond -- GS","Leonard, Kawhi -- SA","Bogut, Andrew -- GS","Paul, Chris -- LAC","Allen, Tony -- MEM"
Kevin Arnovitz,ESPN.com,"Leonard, Kawhi -- SA","Green, Draymond -- GS","Bogut, Andrew -- GS","Allen, Tony -- MEM","Butler, Jimmy -- CHI"
Kevin Calabro,ESPN Radio,"Green, Draymond -- GS","Leonard, Kawhi -- SA","Jordan, DeAndre -- LAC","Paul, Chris -- LAC","Wall, John -- WAS"
Kevin Ding,Bleacher Report,"Green, Draymond -- GS","Leonard, Kawhi -- SA","Gasol, Marc -- MEM","Paul, Chris -- LAC","Allen, Tony -- MEM"
Lang Whitaker,NBA.com,"Leonard, Kawhi -- SA","Green, Draymond -- GS","Jordan, DeAndre -- LAC","Allen, Tony -- MEM","Paul, Chris -- LAC"
Leo Rautins,SportsNet/TSN,"Davis, Anthony -- NO","Green, Draymond -- GS","Jordan, DeAndre -- LAC","Allen, Tony -- MEM","Leonard, Kawhi -- SA"
Marc Berman,New York Post,"Leonard, Kawhi -- SA","Allen, Tony -- MEM","Jordan, DeAndre -- LAC","Butler, Jimmy -- CHI","Paul, Chris -- LAC"
Marc Spears,Yahoo! Sports,"Green, Draymond -- GS","Leonard, Kawhi -- SA","Jordan, DeAndre -- LAC","Allen, Tony -- MEM","Paul, Chris -- LAC"
Marc Stein,ESPN.com,"Green, Draymond -- GS","Leonard, Kawhi -- SA","Bogut, Andrew -- GS","Paul, Chris -- LAC","Allen, Tony -- MEM"
Marc Zumoff,Comcast SportsNet,"Leonard, Kawhi -- SA","Davis, Anthony -- NO","Jordan, DeAndre -- LAC","Butler, Jimmy -- CHI","Allen, Tony -- MEM"
Mark Boyle,107.5/1070 The Fan,"Leonard, Kawhi -- SA","Green, Draymond -- GS","Jordan, DeAndre -- LAC","Allen, Tony -- MEM","Paul, Chris -- LAC"
Mark Followill,TXA-21/Fox Sports Net,"Green, Draymond -- GS","Leonard, Kawhi -- SA","Bogut, Andrew -- GS","Allen, Tony -- MEM","Paul, Chris -- LAC"
Mark Medina,LA Daily News,"Leonard, Kawhi -- SA","Green, Draymond -- GS","Jordan, DeAndre -- LAC","Allen, Tony -- MEM","Paul, Chris -- LAC"
Marv Albert,TNT,"Leonard, Kawhi -- SA","Green, Draymond -- GS","Jordan, DeAndre -- LAC","Butler, Jimmy -- CHI","Paul, Chris -- LAC"
Matt Winer,NBA TV,"Leonard, Kawhi -- SA","Green, Draymond -- GS","Jordan, DeAndre -- LAC","Butler, Jimmy -- CHI","Paul, Chris -- LAC"
Michael Smith,Prime Ticket,"Green, Draymond -- GS","Davis, Anthony -- NO","Jordan, DeAndre -- LAC","Leonard, Kawhi -- SA","Paul, Chris -- LAC"
Michael Wilbon,ESPN,"Leonard, Kawhi -- SA","Green, Draymond -- GS","Jordan, DeAndre -- LAC","Allen, Tony -- MEM","Paul, Chris -- LAC"
Mike Breen,ABC Sports,"Green, Draymond -- GS","Leonard, Kawhi -- SA","Jordan, DeAndre -- LAC","Butler, Jimmy -- CHI","Paul, Chris -- LAC"
Mike Fratello,TNT,"Davis, Anthony -- NO","Leonard, Kawhi -- SA","Jordan, DeAndre -- LAC","Butler, Jimmy -- CHI","Paul, Chris -- LAC"
Mike Gorman,Comcast SportsNet,"Green, Draymond -- GS","Davis, Anthony -- NO","Jordan, DeAndre -- LAC","Leonard, Kawhi -- SA","Allen, Tony -- MEM"
Mike Monroe,San Antonio Express-News,"Leonard, Kawhi -- SA","Green, Draymond -- GS","Jordan, DeAndre -- LAC","Paul, Chris -- LAC","Allen, Tony -- MEM"
Mike Tirico,ESPN,"Green, Draymond -- GS","Leonard, Kawhi -- SA","Jordan, DeAndre -- LAC","Allen, Tony -- MEM","Wall, John -- WAS"
Neil Funk,Comcast SportsNet Chicago,"Leonard, Kawhi -- SA","Green, Draymond -- GS","Jordan, DeAndre -- LAC","Butler, Jimmy -- CHI","Thompson, Klay -- GS"
Paul Coro,Arizona Republic,"Leonard, Kawhi -- SA","Green, Draymond -- GS","Jordan, DeAndre -- LAC","Paul, Chris -- LAC","Butler, Jimmy -- CHI"
Paul Jones,TSN 1050/Sportsnet 590 The Fan,"Green, Draymond -- GS","Davis, Anthony -- NO","Jordan, DeAndre -- LAC","Butler, Jimmy -- CHI","Paul, Chris -- LAC"
Pete Pranica,Fox Sports Tennessee,"Leonard, Kawhi -- SA","Green, Draymond -- GS","Jordan, DeAndre -- LAC","Allen, Tony -- MEM","Paul, Chris -- LAC"
Peter Botte,New York Daily News,"Green, Draymond -- GS","James, LeBron -- CLE","Jordan, DeAndre -- LAC","Allen, Tony -- MEM","Leonard, Kawhi -- SA"
Ralph Lawler,Prime Ticket,"Green, Draymond -- GS","Leonard, Kawhi -- SA","Jordan, DeAndre -- LAC","Allen, Tony -- MEM","Paul, Chris -- LAC"
Ramona Shelburne,ESPN.com,"Leonard, Kawhi -- SA","Green, Draymond -- GS","Jordan, DeAndre -- LAC","Allen, Tony -- MEM","Paul, Chris -- LAC"
Ric Bucher,Bleacher Report,"Green, Draymond -- GS","Leonard, Kawhi -- SA","Jordan, DeAndre -- LAC","Allen, Tony -- MEM","Butler, Jimmy -- CHI"
Rick Bonnell,Charlotte Observer,"Leonard, Kawhi -- SA","Green, Draymond -- GS","Gasol, Marc -- MEM","Butler, Jimmy -- CHI","Allen, Tony -- MEM"
Ron Boone,ROOT Sports,"Green, Draymond -- GS","Leonard, Kawhi -- SA","Bogut, Andrew -- GS","Allen, Tony -- MEM","Butler, Jimmy -- CHI"
Ron Tillery,Memphis Commercial Appeal,"James, LeBron -- CLE","Duncan, Tim -- SA","Jordan, DeAndre -- LAC","Allen, Tony -- MEM","Curry, Stephen -- GS"
Sage Steele,ABC Sports,"Green, Draymond -- GS","Duncan, Tim -- SA","Bogut, Andrew -- GS","Allen, Tony -- MEM","Leonard, Kawhi -- SA"
Sam Amick,USA Today,"Davis, Anthony -- NO","Green, Draymond -- GS","Jordan, DeAndre -- LAC","Leonard, Kawhi -- SA","Allen, Tony -- MEM"
Sam Smith,Bulls.com,"Green, Draymond -- GS","Davis, Anthony -- NO","Duncan, Tim -- SA","Allen, Tony -- MEM","Leonard, Kawhi -- SA"
Scott Hastings,Altitude Sports & Entertainment,"Green, Draymond -- GS","James, LeBron -- CLE","Jordan, DeAndre -- LAC","Paul, Chris -- LAC","Westbrook, Russell -- OKC"
Scott Lauer,WFNZ-610AM,"Kidd-Gilchrist, Michael -- CHA","Leonard, Kawhi -- SA","Gobert, Rudy -- UTA","Allen, Tony -- MEM","Thompson, Klay -- GS"
Sean Deveney,The Sporting News,"Green, Draymond -- GS","Leonard, Kawhi -- SA","Bogut, Andrew -- GS","Allen, Tony -- MEM","Paul, Chris -- LAC"
Sean Grande,WEEI Radio,"Leonard, Kawhi -- SA","Green, Draymond -- GS","Bogut, Andrew -- GS","Butler, Jimmy -- CHI","Allen, Tony -- MEM"
Sean Kelley,WWL 105.3 FM,"Davis, Anthony -- NO","Leonard, Kawhi -- SA","Jordan, DeAndre -- LAC","Westbrook, Russell -- OKC","Paul, Chris -- LAC"
Steve Aschburner,NBA.com,"Leonard, Kawhi -- SA","Green, Draymond -- GS","Jordan, DeAndre -- LAC","Allen, Tony -- MEM","Butler, Jimmy -- CHI"
Steve Buckhantz,Comcast SportsNet Mid-Atlantic,"Davis, Anthony -- NO","Green, Draymond -- GS","Jordan, DeAndre -- LAC","Butler, Jimmy -- CHI","Westbrook, Russell -- OKC"
Steve Holman,Hawks Radio Network,"Davis, Anthony -- NO","Green, Draymond -- GS","Jordan, DeAndre -- LAC","Allen, Tony -- MEM","Leonard, Kawhi -- SA"
Steve Martin,Fox Sports Carolinas/SportSouth,"Leonard, Kawhi -- SA","Carroll, DeMarre -- ATL","Jordan, DeAndre -- LAC","Allen, Tony -- MEM","Green, Draymond -- GS"
Steve Popper,The Record,"Green, Draymond -- GS","Davis, Anthony -- NO","Jordan, DeAndre -- LAC","Leonard, Kawhi -- SA","Allen, Tony -- MEM"
Ted Davis,WTMJ Radio,"Leonard, Kawhi -- SA","Davis, Anthony -- NO","Jordan, DeAndre -- LAC","Allen, Tony -- MEM","Paul, Chris -- LAC"
Tim Capstraw,WFAN (660),"Leonard, Kawhi -- SA","Green, Draymond -- GS","Bogut, Andrew -- GS","Paul, Chris -- LAC","Allen, Tony -- MEM"
Tom Heinsohn,Comcast SportsNet,"Green, Draymond -- GS","Davis, Anthony -- NO","Jordan, DeAndre -- LAC","Allen, Tony -- MEM","Bradley, Avery -- BOS"
Tony Fiorentino,Sun Sports,"Davis, Anthony -- NO","Leonard, Kawhi -- SA","Whiteside, Hassan -- MIA","Allen, Tony -- MEM","Wall, John -- WAS"
Vince Ellis,Detroit Free Press,"Leonard, Kawhi -- SA","Green, Draymond -- GS","Jordan, DeAndre -- LAC","Thompson, Klay -- GS","Allen, Tony -- MEM"
Zach Lowe,Grantland,"Leonard, Kawhi -- SA","Green, Draymond -- GS","Bogut, Andrew -- GS","Paul, Chris -- LAC","Butler, Jimmy -- CHI"
