Voter,Affiliation,first_place,second_place,third_place,fourth_place,fifth_place
Aaron Falk,Salt Lake Tribune,"Curry, Stephen -- GS","Harden, James -- HOU","James, LeBron -- CLE","Davis, Anthony -- NO","Westbrook, Russell -- OKC"
Alan Horton,WCCO 830-AM,"Curry, Stephen -- GS","Harden, James -- HOU","James, LeBron -- CLE","Paul, Chris -- LAC","Davis, Anthony -- NO"
Andre Aldridge,Fox Sports South,"Curry, Stephen -- GS","Harden, James -- HOU","James, LeBron -- CLE","Westbrook, Russell -- OKC","Davis, Anthony -- NO"
Bill Land,Fox Sports Southwest,"James, LeBron -- CLE","Curry, Stephen -- GS","Harden, James -- HOU","Westbrook, Russell -- OKC","Davis, Anthony -- NO"
Bill Oram,Orange County Register,"Curry, Stephen -- GS","Harden, James -- HOU","James, LeBron -- CLE","Davis, Anthony -- NO","Westbrook, Russell -- OKC"
Bill Reiter,Foxsports.com,"Curry, Stephen -- GS","Harden, James -- HOU","James, LeBron -- CLE","Davis, Anthony -- NO","Paul, Chris -- LAC"
Bill Schoening,WOAI Radio,"Curry, Stephen -- GS","Harden, James -- HOU","James, LeBron -- CLE","Davis, Anthony -- NO","Westbrook, Russell -- OKC"
Bill Simmons,Grantland,"Curry, Stephen -- GS","Harden, James -- HOU","Paul, Chris -- LAC","Davis, Anthony -- NO","Westbrook, Russell -- OKC"
Bill Wennington,WMVP AM 1000,"Curry, Stephen -- GS","Harden, James -- HOU","James, LeBron -- CLE","Davis, Anthony -- NO","Westbrook, Russell -- OKC"
Bob Cooney,Philadelphia Daily News,"Curry, Stephen -- GS","Harden, James -- HOU","Westbrook, Russell -- OKC","Paul, Chris -- LAC","James, LeBron -- CLE"
Bob Rathbun,Fox Sports South,"Curry, Stephen -- GS","Harden, James -- HOU","Westbrook, Russell -- OKC","James, LeBron -- CLE","Thompson, Klay -- GS"
Brian Davis,Fox Sports Oklahoma,"Curry, Stephen -- GS","Westbrook, Russell -- OKC","Harden, James -- HOU","James, LeBron -- CLE","Davis, Anthony -- NO"
Brian Windhorst,ESPN.com,"Harden, James -- HOU","Curry, Stephen -- GS","James, LeBron -- CLE","Westbrook, Russell -- OKC","Davis, Anthony -- NO"
Candace Buckner,Indianapolis Star,"Curry, Stephen -- GS","Harden, James -- HOU","Westbrook, Russell -- OKC","Davis, Anthony -- NO","James, LeBron -- CLE"
Charles Gardner,Milwaukee Journal Sentinel,"Curry, Stephen -- GS","Harden, James -- HOU","James, LeBron -- CLE","Davis, Anthony -- NO","Paul, Chris -- LAC"
Chris Broussard,ESPN The Magazine,"Harden, James -- HOU","Curry, Stephen -- GS","James, LeBron -- CLE","Westbrook, Russell -- OKC","Davis, Anthony -- NO"
Chris Carrino,WFAN (660),"Curry, Stephen -- GS","James, LeBron -- CLE","Harden, James -- HOU","Westbrook, Russell -- OKC","Davis, Anthony -- NO"
Chris Dempsey,Denver Post,"Harden, James -- HOU","Curry, Stephen -- GS","James, LeBron -- CLE","Westbrook, Russell -- OKC","Davis, Anthony -- NO"
Chris Denari,Fox Sports Indiana,"Curry, Stephen -- GS","Harden, James -- HOU","James, LeBron -- CLE","Westbrook, Russell -- OKC","Davis, Anthony -- NO"
Chris Haynes,Northeast Ohio Media Group/Cleveland.com,"Curry, Stephen -- GS","James, LeBron -- CLE","Davis, Anthony -- NO","Westbrook, Russell -- OKC","Paul, Chris -- LAC"
Chris Mannix,Sports Illustrated,"Harden, James -- HOU","Curry, Stephen -- GS","Westbrook, Russell -- OKC","James, LeBron -- CLE","Davis, Anthony -- NO"
Chris Sheridan,Sheridanhoops.com,"Harden, James -- HOU","Curry, Stephen -- GS","Davis, Anthony -- NO","Westbrook, Russell -- OKC","James, LeBron -- CLE"
Chuck Cooperstein,ESPN 103.3,"Curry, Stephen -- GS","Harden, James -- HOU","James, LeBron -- CLE","Paul, Chris -- LAC","Davis, Anthony -- NO"
Chuck Swirsky,WMVP AM 1000,"Curry, Stephen -- GS","Harden, James -- HOU","James, LeBron -- CLE","Davis, Anthony -- NO","Westbrook, Russell -- OKC"
Craig Ackerman,Sportstalk 790 AM,"Harden, James -- HOU","Curry, Stephen -- GS","James, LeBron -- CLE","Davis, Anthony -- NO","Leonard, Kawhi -- SA"
Dan Woike,Orange County Register,"Curry, Stephen -- GS","Harden, James -- HOU","James, LeBron -- CLE","Paul, Chris -- LAC","Davis, Anthony -- NO"
Darnell Mayberry,Oklahoman,"Harden, James -- HOU","Curry, Stephen -- GS","James, LeBron -- CLE","Paul, Chris -- LAC","Davis, Anthony -- NO"
Dave Johnson,106.7 The Fan,"Curry, Stephen -- GS","Harden, James -- HOU","Westbrook, Russell -- OKC","Davis, Anthony -- NO","Paul, Chris -- LAC"
David Aldridge,TNT,"Harden, James -- HOU","Curry, Stephen -- GS","James, LeBron -- CLE","Davis, Anthony -- NO","Westbrook, Russell -- OKC"
David Mayo,Mlive Media Group,"Curry, Stephen -- GS","Westbrook, Russell -- OKC","Harden, James -- HOU","James, LeBron -- CLE","Davis, Anthony -- NO"
Dennis Neumann,ESPN 580 AM,"Harden, James -- HOU","Curry, Stephen -- GS","Westbrook, Russell -- OKC","James, LeBron -- CLE","Duncan, Tim -- SA"
Doris Burke,ESPN,"Curry, Stephen -- GS","Harden, James -- HOU","James, LeBron -- CLE","Paul, Chris -- LAC","Westbrook, Russell -- OKC"
Doug Smith,The Toronto Star,"Harden, James -- HOU","Curry, Stephen -- GS","James, LeBron -- CLE","Paul, Chris -- LAC","Westbrook, Russell -- OKC"
Dwain Price,Ft. Worth Star Telegam,"Curry, Stephen -- GS","Harden, James -- HOU","Westbrook, Russell -- OKC","James, LeBron -- CLE","Davis, Anthony -- NO"
Eddie Johnson,Fox Sports Arizona,"Curry, Stephen -- GS","Harden, James -- HOU","James, LeBron -- CLE","Davis, Anthony -- NO","Westbrook, Russell -- OKC"
Eddie Sefko,Dallas Morning News,"Curry, Stephen -- GS","James, LeBron -- CLE","Harden, James -- HOU","Griffin, Blake -- LAC","Westbrook, Russell -- OKC"
Eric Hasseltine,92.9 FM ESPN/680 AM,"Curry, Stephen -- GS","Harden, James -- HOU","Westbrook, Russell -- OKC","James, LeBron -- CLE","Paul, Chris -- LAC"
Eric Reid,Sun Sports,"Curry, Stephen -- GS","Harden, James -- HOU","Davis, Anthony -- NO","James, LeBron -- CLE","Westbrook, Russell -- OKC"
Ernie Johnson,TNT,"Curry, Stephen -- GS","Harden, James -- HOU","James, LeBron -- CLE","Westbrook, Russell -- OKC","Davis, Anthony -- NO"
Ethan Skolnick,Bleacher Report,"Curry, Stephen -- GS","Harden, James -- HOU","James, LeBron -- CLE","Westbrook, Russell -- OKC","Davis, Anthony -- NO"
Fran Blinebury,NBA.com,"Harden, James -- HOU","Curry, Stephen -- GS","James, LeBron -- CLE","Paul, Chris -- LAC","Westbrook, Russell -- OKC"
Frank Isola,Sirius Radio/New York Daily News,"Curry, Stephen -- GS","Harden, James -- HOU","Westbrook, Russell -- OKC","James, LeBron -- CLE","Paul, Chris -- LAC"
Fred McLeod,Fox Sports Ohio,"James, LeBron -- CLE","Curry, Stephen -- GS","Harden, James -- HOU","Westbrook, Russell -- OKC","Davis, Anthony -- NO"
Gary Gerould,Comcast SportsNet-CA,"Curry, Stephen -- GS","Harden, James -- HOU","Westbrook, Russell -- OKC","James, LeBron -- CLE","Davis, Anthony -- NO"
Gary Washburn,Boston Globe,"Curry, Stephen -- GS","Harden, James -- HOU","James, LeBron -- CLE","Westbrook, Russell -- OKC","Aldridge, LaMarcus -- POR"
George Blaha,WMGC / Fox Sports Detroit,"Curry, Stephen -- GS","Harden, James -- HOU","James, LeBron -- CLE","Davis, Anthony -- NO","Westbrook, Russell -- OKC"
Grant Napear,Comcast SportsNet-CA,"Curry, Stephen -- GS","Harden, James -- HOU","James, LeBron -- CLE","Paul, Chris -- LAC","Westbrook, Russell -- OKC"
Howard Beck,Bleacher Report,"Curry, Stephen -- GS","Harden, James -- HOU","Paul, Chris -- LAC","James, LeBron -- CLE","Davis, Anthony -- NO"
Hubie Brown,ESPN,"Harden, James -- HOU","Curry, Stephen -- GS","Westbrook, Russell -- OKC","Davis, Anthony -- NO","James, LeBron -- CLE"
Ian Eagle,YES Network,"Curry, Stephen -- GS","Harden, James -- HOU","James, LeBron -- CLE","Davis, Anthony -- NO","Westbrook, Russell -- OKC"
Ira Winderman,South Florida Sun Sentinel,"Curry, Stephen -- GS","Harden, James -- HOU","Paul, Chris -- LAC","James, LeBron -- CLE","Davis, Anthony -- NO"
Israel Guttierez,ESPN.com,"Harden, James -- HOU","Curry, Stephen -- GS","Paul, Chris -- LAC","Westbrook, Russell -- OKC","Davis, Anthony -- NO"
JA Adande,ESPN.com,"Curry, Stephen -- GS","Harden, James -- HOU","James, LeBron -- CLE","Westbrook, Russell -- OKC","Paul, Chris -- LAC"
Jabari Young,Comcast SportsNet NW,"Curry, Stephen -- GS","Harden, James -- HOU","Westbrook, Russell -- OKC","Aldridge, LaMarcus -- POR","James, LeBron -- CLE"
Jason Jones,Sacramento Bee,"Curry, Stephen -- GS","Harden, James -- HOU","James, LeBron -- CLE","Westbrook, Russell -- OKC","Paul, Chris -- LAC"
Jason Kosmicki,Altitude Radio Network,"Curry, Stephen -- GS","James, LeBron -- CLE","Westbrook, Russell -- OKC","Harden, James -- HOU","Davis, Anthony -- NO"
Jason Lloyd,Akron Beacon Journal,"James, LeBron -- CLE","Harden, James -- HOU","Curry, Stephen -- GS","Westbrook, Russell -- OKC","Davis, Anthony -- NO"
Jeff McDonald,San Antonio Express-News,"Curry, Stephen -- GS","Harden, James -- HOU","James, LeBron -- CLE","Davis, Anthony -- NO","Paul, Chris -- LAC"
Jeff Turner,Fox Sports Florida,"Harden, James -- HOU","Curry, Stephen -- GS","James, LeBron -- CLE","Davis, Anthony -- NO","Westbrook, Russell -- OKC"
Jeff Zillgitt,USA Today,"Curry, Stephen -- GS","Harden, James -- HOU","James, LeBron -- CLE","Davis, Anthony -- NO","Westbrook, Russell -- OKC"
Jerry Zgoda,Minneapolis Star Tribune,"Curry, Stephen -- GS","Harden, James -- HOU","Westbrook, Russell -- OKC","James, LeBron -- CLE","Davis, Anthony -- NO"
Jim Barnett,Comcast SportsNet Bay Area,"Curry, Stephen -- GS","Harden, James -- HOU","Westbrook, Russell -- OKC","James, LeBron -- CLE","Davis, Anthony -- NO"
Jim Paschke,Fox Sports Wisconsin,"Harden, James -- HOU","Curry, Stephen -- GS","James, LeBron -- CLE","Davis, Anthony -- NO","Westbrook, Russell -- OKC"
Jim Petersen,Fox Sports North,"Curry, Stephen -- GS","Harden, James -- HOU","Davis, Anthony -- NO","James, LeBron -- CLE","Paul, Chris -- LAC"
Jody Genessy,Deseret News,"Curry, Stephen -- GS","Harden, James -- HOU","Davis, Anthony -- NO","James, LeBron -- CLE","Paul, Chris -- LAC"
Joe Freeman,The Oregonian,"Curry, Stephen -- GS","Harden, James -- HOU","James, LeBron -- CLE","Paul, Chris -- LAC","Davis, Anthony -- NO"
Joel Meyers,Fox Sports New Orleans,"Curry, Stephen -- GS","Harden, James -- HOU","Westbrook, Russell -- OKC","Davis, Anthony -- NO","James, LeBron -- CLE"
John Denton,OrlandoMagic.com,"Curry, Stephen -- GS","Harden, James -- HOU","James, LeBron -- CLE","Westbrook, Russell -- OKC","Davis, Anthony -- NO"
John Reid,New Orleans Times Picayune,"Curry, Stephen -- GS","Harden, James -- HOU","Davis, Anthony -- NO","James, LeBron -- CLE","Paul, Chris -- LAC"
Jon Barry,ESPN Radio,"Curry, Stephen -- GS","Harden, James -- HOU","Westbrook, Russell -- OKC","James, LeBron -- CLE","Davis, Anthony -- NO"
Jonathan Feigen,Houston Chronicle,"Harden, James -- HOU","Curry, Stephen -- GS","James, LeBron -- CLE","Westbrook, Russell -- OKC","Davis, Anthony -- NO"
Keith Pompey,Philadelphia Inquirer,"Curry, Stephen -- GS","Harden, James -- HOU","Westbrook, Russell -- OKC","James, LeBron -- CLE","Davis, Anthony -- NO"
Ken Berger,CBSSports.com,"Curry, Stephen -- GS","Harden, James -- HOU","Paul, Chris -- LAC","Westbrook, Russell -- OKC","Davis, Anthony -- NO"
Kevin Arnovitz,ESPN.com,"Curry, Stephen -- GS","Harden, James -- HOU","Paul, Chris -- LAC","Westbrook, Russell -- OKC","Davis, Anthony -- NO"
Kevin Calabro,ESPN Radio,"Curry, Stephen -- GS","Harden, James -- HOU","Paul, Chris -- LAC","James, LeBron -- CLE","Davis, Anthony -- NO"
Kevin Ding,Bleacher Report,"Curry, Stephen -- GS","James, LeBron -- CLE","Paul, Chris -- LAC","Harden, James -- HOU","Davis, Anthony -- NO"
Lang Whitaker,NBA.com,"Curry, Stephen -- GS","Harden, James -- HOU","James, LeBron -- CLE","Westbrook, Russell -- OKC","Davis, Anthony -- NO"
Leo Rautins,SportsNet/TSN,"Curry, Stephen -- GS","Harden, James -- HOU","James, LeBron -- CLE","Davis, Anthony -- NO","Westbrook, Russell -- OKC"
Marc Berman,New York Post,"Curry, Stephen -- GS","Westbrook, Russell -- OKC","Davis, Anthony -- NO","Harden, James -- HOU","James, LeBron -- CLE"
Marc Spears,Yahoo! Sports,"Curry, Stephen -- GS","Harden, James -- HOU","Westbrook, Russell -- OKC","James, LeBron -- CLE","Aldridge, LaMarcus -- POR"
Marc Stein,ESPN.com,"Curry, Stephen -- GS","Harden, James -- HOU","James, LeBron -- CLE","Davis, Anthony -- NO","Westbrook, Russell -- OKC"
Marc Zumoff,Comcast SportsNet,"Curry, Stephen -- GS","Harden, James -- HOU","James, LeBron -- CLE","Westbrook, Russell -- OKC","Paul, Chris -- LAC"
Mark Boyle,107.5/1070 The Fan,"James, LeBron -- CLE","Curry, Stephen -- GS","Harden, James -- HOU","Westbrook, Russell -- OKC","Davis, Anthony -- NO"
Mark Medina,LA Daily News,"Curry, Stephen -- GS","Harden, James -- HOU","James, LeBron -- CLE","Westbrook, Russell -- OKC","Paul, Chris -- LAC"
Marv Albert,TNT,"Curry, Stephen -- GS","Harden, James -- HOU","James, LeBron -- CLE","Westbrook, Russell -- OKC","Paul, Chris -- LAC"
Matt Bullard,Root Sports Southwest,"Harden, James -- HOU","Curry, Stephen -- GS","Westbrook, Russell -- OKC","Davis, Anthony -- NO","James, LeBron -- CLE"
Matt Pinto,WWLS / 98.1,"Curry, Stephen -- GS","Westbrook, Russell -- OKC","James, LeBron -- CLE","Harden, James -- HOU","Paul, Chris -- LAC"
Matt Winer,NBA TV,"Harden, James -- HOU","Curry, Stephen -- GS","James, LeBron -- CLE","Paul, Chris -- LAC","Davis, Anthony -- NO"
Michael Smith,Prime Ticket,"Curry, Stephen -- GS","Harden, James -- HOU","Westbrook, Russell -- OKC","James, LeBron -- CLE","Paul, Chris -- LAC"
Michael Wilbon,ESPN,"Curry, Stephen -- GS","Harden, James -- HOU","Westbrook, Russell -- OKC","James, LeBron -- CLE","Davis, Anthony -- NO"
Mike Breen,ABC Sports,"Curry, Stephen -- GS","Harden, James -- HOU","Westbrook, Russell -- OKC","James, LeBron -- CLE","Paul, Chris -- LAC"
Mike Crispino,MSG Network,"Harden, James -- HOU","Westbrook, Russell -- OKC","James, LeBron -- CLE","Gasol, Marc -- MEM","Curry, Stephen -- GS"
Mike Fratello,TNT,"Harden, James -- HOU","James, LeBron -- CLE","Curry, Stephen -- GS","Westbrook, Russell -- OKC","Paul, Chris -- LAC"
Mike Gorman,Comcast SportsNet,"Curry, Stephen -- GS","James, LeBron -- CLE","Harden, James -- HOU","Westbrook, Russell -- OKC","Davis, Anthony -- NO"
Mike Inglis,WAXY Radio,"Curry, Stephen -- GS","Harden, James -- HOU","James, LeBron -- CLE","Davis, Anthony -- NO","Westbrook, Russell -- OKC"
Mike Monroe,San Antonio Express-News,"Curry, Stephen -- GS","James, LeBron -- CLE","Harden, James -- HOU","Westbrook, Russell -- OKC","Davis, Anthony -- NO"
Mike Rice,Comcast SportsNet NW,"Harden, James -- HOU","Curry, Stephen -- GS","Westbrook, Russell -- OKC","James, LeBron -- CLE","Paul, Chris -- LAC"
Mike Tirico,ESPN,"Curry, Stephen -- GS","Harden, James -- HOU","James, LeBron -- CLE","Westbrook, Russell -- OKC","Davis, Anthony -- NO"
NBA Fan Component,NBA.com/Twitter/Google,"Curry, Stephen -- GS","James, LeBron -- CLE","Harden, James -- HOU","Westbrook, Russell -- OKC","Paul, Chris -- LAC"
Paul Coro,Arizona Republic,"Curry, Stephen -- GS","Harden, James -- HOU","James, LeBron -- CLE","Paul, Chris -- LAC","Davis, Anthony -- NO"
Paul Jones,TSN 1050/Sportsnet 590 The Fan,"Curry, Stephen -- GS","Harden, James -- HOU","James, LeBron -- CLE","Davis, Anthony -- NO","Westbrook, Russell -- OKC"
Pete Pranica,Fox Sports Tennessee,"Curry, Stephen -- GS","James, LeBron -- CLE","Harden, James -- HOU","Westbrook, Russell -- OKC","Paul, Chris -- LAC"
Phil Chenier,Comcast SportsNet Mid-Atlantic,"Curry, Stephen -- GS","Harden, James -- HOU","James, LeBron -- CLE","Westbrook, Russell -- OKC","Davis, Anthony -- NO"
Ralph Lawler,Prime Ticket,"Harden, James -- HOU","Curry, Stephen -- GS","James, LeBron -- CLE","Paul, Chris -- LAC","Westbrook, Russell -- OKC"
Ramona Shelburne,ESPN.com,"Curry, Stephen -- GS","Harden, James -- HOU","James, LeBron -- CLE","Davis, Anthony -- NO","Westbrook, Russell -- OKC"
Ric Bucher,Bleacher Report,"Curry, Stephen -- GS","Harden, James -- HOU","Westbrook, Russell -- OKC","James, LeBron -- CLE","Davis, Anthony -- NO"
Rick Bonnell,Charlotte Observer,"Curry, Stephen -- GS","Harden, James -- HOU","James, LeBron -- CLE","Westbrook, Russell -- OKC","Davis, Anthony -- NO"
Rod Boone,Newsday,"Curry, Stephen -- GS","Harden, James -- HOU","James, LeBron -- CLE","Davis, Anthony -- NO","Westbrook, Russell -- OKC"
Ron Boone,ROOT Sports,"Harden, James -- HOU","Curry, Stephen -- GS","James, LeBron -- CLE","Davis, Anthony -- NO","Paul, Chris -- LAC"
Ron Tillery,Memphis Commercial Appeal,"Curry, Stephen -- GS","Harden, James -- HOU","Westbrook, Russell -- OKC","Davis, Anthony -- NO","Paul, Chris -- LAC"
Rusty Simmons,San Francisco Chronicle,"Curry, Stephen -- GS","Harden, James -- HOU","James, LeBron -- CLE","Davis, Anthony -- NO","Westbrook, Russell -- OKC"
Sage Steele,ABC Sports,"Curry, Stephen -- GS","Harden, James -- HOU","Westbrook, Russell -- OKC","James, LeBron -- CLE","Davis, Anthony -- NO"
Sam Amick,USA Today,"Curry, Stephen -- GS","Harden, James -- HOU","Paul, Chris -- LAC","James, LeBron -- CLE","Davis, Anthony -- NO"
Sam Smith,Bulls.com,"Curry, Stephen -- GS","Harden, James -- HOU","James, LeBron -- CLE","Westbrook, Russell -- OKC","Paul, Chris -- LAC"
Scott Hastings,Altitude Sports & Entertainment,"James, LeBron -- CLE","Harden, James -- HOU","Curry, Stephen -- GS","Westbrook, Russell -- OKC","Aldridge, LaMarcus -- POR"
Scott Lauer,WFNZ-610AM,"Curry, Stephen -- GS","Harden, James -- HOU","Davis, Anthony -- NO","Westbrook, Russell -- OKC","James, LeBron -- CLE"
Sean Deveney,The Sporting News,"Curry, Stephen -- GS","Harden, James -- HOU","Davis, Anthony -- NO","James, LeBron -- CLE","Paul, Chris -- LAC"
Sean Grande,WEEI Radio,"Curry, Stephen -- GS","Harden, James -- HOU","James, LeBron -- CLE","Davis, Anthony -- NO","Westbrook, Russell -- OKC"
Sean Kelley,WWL 105.3 FM,"Curry, Stephen -- GS","Harden, James -- HOU","Westbrook, Russell -- OKC","Davis, Anthony -- NO","Paul, Chris -- LAC"
Sherrod Blakely,Comcast SportsNet,"Harden, James -- HOU","Curry, Stephen -- GS","Westbrook, Russell -- OKC","James, LeBron -- CLE","Davis, Anthony -- NO"
Stacey King,Comcast SportsNet Chicago,"Curry, Stephen -- GS","Harden, James -- HOU","Westbrook, Russell -- OKC","Paul, Chris -- LAC","James, LeBron -- CLE"
Steve Aschburner,NBA.com,"Curry, Stephen -- GS","Harden, James -- HOU","James, LeBron -- CLE","Westbrook, Russell -- OKC","Paul, Chris -- LAC"
Steve Buckhantz,Comcast SportsNet Mid-Atlantic,"Curry, Stephen -- GS","James, LeBron -- CLE","Harden, James -- HOU","Westbrook, Russell -- OKC","Paul, Chris -- LAC"
Steve Holman,Hawks Radio Network,"Curry, Stephen -- GS","Harden, James -- HOU","Westbrook, Russell -- OKC","James, LeBron -- CLE","Davis, Anthony -- NO"
Steve Martin,Fox Sports Carolinas/SportSouth,"Curry, Stephen -- GS","Harden, James -- HOU","James, LeBron -- CLE","Westbrook, Russell -- OKC","Davis, Anthony -- NO"
Steve Popper,The Record,"Curry, Stephen -- GS","Harden, James -- HOU","Westbrook, Russell -- OKC","Paul, Chris -- LAC","James, LeBron -- CLE"
Ted Davis,WTMJ Radio,"Curry, Stephen -- GS","James, LeBron -- CLE","Harden, James -- HOU","Davis, Anthony -- NO","Westbrook, Russell -- OKC"
Tim Roye,KNBR Radio,"Curry, Stephen -- GS","Harden, James -- HOU","James, LeBron -- CLE","Westbrook, Russell -- OKC","Davis, Anthony -- NO"
Vince Ellis,Detroit Free Press,"Harden, James -- HOU","Curry, Stephen -- GS","Westbrook, Russell -- OKC","Davis, Anthony -- NO","James, LeBron -- CLE"
Zach Lowe,Grantland,"Curry, Stephen -- GS","Harden, James -- HOU","Paul, Chris -- LAC","James, LeBron -- CLE","Davis, Anthony -- NO"
