Voter,Affiliation,Forward_1,Forward_2,Center,Guard_1,Guard_2
Aaron Falk,Salt Lake Tribune,"George, Paul -- IND","Durant, Kevin -- OKC","Horford, Al -- ATL","Paul, Chris -- LAC","Thompson, Klay -- GS"
Adam Himmelsbach,Boston Globe,"Durant, Kevin -- OKC","George, Paul -- IND","Cousins, DeMarcus -- SAC","Lowry, Kyle -- TOR","Paul, Chris -- LAC"
Adrian Chavarria,KEYH 850 AM,"Durant, Kevin -- OKC","George, Paul -- IND","Drummond, Andre -- DET","Harden, James -- HOU","Lowry, Kyle -- TOR"
Al Iannazzone,Newsday,"Green, Draymond -- GS","Durant, Kevin -- OKC","Jordan, DeAndre -- LAC","Paul, Chris -- LAC","Lowry, Kyle -- TOR"
Alan Horton,WCCO 830-AM,"Durant, Kevin -- OKC","Millsap, Paul -- ATL","Horford, Al -- ATL","Lowry, Kyle -- TOR","Paul, Chris -- LAC"
Andre Aldridge,Fox Sports South,"Green, Draymond -- GS","Durant, Kevin -- OKC","Jordan, DeAndre -- LAC","Thompson, Klay -- GS","Paul, Chris -- LAC"
Andy Vasquez,Bergen Record,"Durant, Kevin -- OKC","Green, Draymond -- GS","Horford, Al -- ATL","Paul, Chris -- LAC","Lowry, Kyle -- TOR"
Anthony Slater,The Oklahoman,"Green, Draymond -- GS","Durant, Kevin -- OKC","Cousins, DeMarcus -- SAC","Paul, Chris -- LAC","Lowry, Kyle -- TOR"
Antonio Harvey,Fox Sports Radio/620AM,"Green, Draymond -- GS","Aldridge, LaMarcus -- SA","Drummond, Andre -- DET","Thompson, Klay -- GS","Lillard, Damian -- POR"
Bill Land,Fox Sports Southwest,"Durant, Kevin -- OKC","Green, Draymond -- GS","Jordan, DeAndre -- LAC","Paul, Chris -- LAC","Lillard, Damian -- POR"
Bill Oram,Orange County Register,"Green, Draymond -- GS","Durant, Kevin -- OKC","Horford, Al -- ATL","Paul, Chris -- LAC","Thompson, Klay -- GS"
Bill Reiter,CBSSports.com,"George, Paul -- IND","Durant, Kevin -- OKC","Towns, Karl-Anthony -- MIN","Paul, Chris -- LAC","Thompson, Klay -- GS"
Bill Schoening,WOAI Radio,"Durant, Kevin -- OKC","Green, Draymond -- GS","Horford, Al -- ATL","Lillard, Damian -- POR","Paul, Chris -- LAC"
Bill Simmons,Bill Simmons Podcast/HBO,"Durant, Kevin -- OKC","Millsap, Paul -- ATL","Aldridge, LaMarcus -- SA","Westbrook, Russell -- OKC","Lowry, Kyle -- TOR"
Bill Wennington,ESPN AM 1000,"Green, Draymond -- GS","Leonard, Kawhi -- SA","Towns, Karl-Anthony -- MIN","Thompson, Klay -- GS","Lillard, Damian -- POR"
Bob Rathbun,Fox Sports South,"Durant, Kevin -- OKC","Green, Draymond -- GS","Drummond, Andre -- DET","Paul, Chris -- LAC","Thompson, Klay -- GS"
Brendan Brown,MSG Network,"Durant, Kevin -- OKC","Green, Draymond -- GS","Davis, Anthony -- NOP","Paul, Chris -- LAC","Thompson, Klay -- GS"
Brian Davis,Fox Sports Oklahoma,"James, LeBron -- CLE","Aldridge, LaMarcus -- SA","Jordan, DeAndre -- LAC","Lowry, Kyle -- TOR","Paul, Chris -- LAC"
Brian Lewis,New York Post,"Green, Draymond -- GS","Durant, Kevin -- OKC","Drummond, Andre -- DET","Paul, Chris -- LAC","Thompson, Klay -- GS"
Brian Mahoney,Associated Press,"Durant, Kevin -- OKC","George, Paul -- IND","Cousins, DeMarcus -- SAC","Paul, Chris -- LAC","Lillard, Damian -- POR"
Brian Windhorst,ESPN.com,"Durant, Kevin -- OKC","Aldridge, LaMarcus -- SA","Jordan, DeAndre -- LAC","Paul, Chris -- LAC","Thompson, Klay -- GS"
Calvin Watkins,ESPN.com Houston,"Leonard, Kawhi -- SA","Green, Draymond -- GS","Horford, Al -- ATL","Paul, Chris -- LAC","Thompson, Klay -- GS"
Candace Buckner,Indianapolis Star,"James, LeBron -- CLE","Green, Draymond -- GS","Jordan, DeAndre -- LAC","Harden, James -- HOU","Lowry, Kyle -- TOR"
Charles Gardner,Milwaukee Journal Sentinel,"Aldridge, LaMarcus -- SA","Durant, Kevin -- OKC","Cousins, DeMarcus -- SAC","Lillard, Damian -- POR","Paul, Chris -- LAC"
Chris Broussard,ESPN,"Durant, Kevin -- OKC","Green, Draymond -- GS","Whiteside, Hassan -- MIA","Lillard, Damian -- POR","Paul, Chris -- LAC"
Chris Carrino,WFAN (660),"Green, Draymond -- GS","Leonard, Kawhi -- SA","Jordan, DeAndre -- LAC","Lillard, Damian -- POR","Paul, Chris -- LAC"
Chris Dempsey,Denver Post,"Durant, Kevin -- OKC","George, Paul -- IND","Jordan, DeAndre -- LAC","Paul, Chris -- LAC","Lillard, Damian -- POR"
Chris Denari,Fox Sports Indiana,"Durant, Kevin -- OKC","Green, Draymond -- GS","Jordan, DeAndre -- LAC","Paul, Chris -- LAC","Thompson, Klay -- GS"
Chris Marlowe,Altitude Sports & Entertainment,"Green, Draymond -- GS","Durant, Kevin -- OKC","Jordan, DeAndre -- LAC","Paul, Chris -- LAC","Thompson, Klay -- GS"
Chris Sheridan,Sheridanhoops.com,"Leonard, Kawhi -- SA","Green, Draymond -- GS","Horford, Al -- ATL","Lillard, Damian -- POR","Thompson, Klay -- GS"
Chuck Cooperstein,ESPN 103.3,"Green, Draymond -- GS","Leonard, Kawhi -- SA","Whiteside, Hassan -- MIA","Westbrook, Russell -- OKC","Lillard, Damian -- POR"
Chuck Swirsky,ESPN AM 1000,"Durant, Kevin -- OKC","George, Paul -- IND","Drummond, Andre -- DET","Lillard, Damian -- POR","Thomas, Isaiah -- BOS"
Dan Woike,Orange County Register,"Green, Draymond -- GS","Durant, Kevin -- OKC","Cousins, DeMarcus -- SAC","Paul, Chris -- LAC","Thompson, Klay -- GS"
Dante Marchitelli,Fox Sports Florida,"Durant, Kevin -- OKC","Green, Draymond -- GS","Aldridge, LaMarcus -- SA","Lillard, Damian -- POR","Paul, Chris -- LAC"
Dave Johnson,106.7 The Fan,"Durant, Kevin -- OKC","Green, Draymond -- GS","Drummond, Andre -- DET","Lillard, Damian -- POR","Paul, Chris -- LAC"
Dave McMenamin,ESPN.com,"Green, Draymond -- GS","Durant, Kevin -- OKC","Horford, Al -- ATL","Lowry, Kyle -- TOR","Paul, Chris -- LAC"
David Aldridge,TNT,"Durant, Kevin -- OKC","Green, Draymond -- GS","Horford, Al -- ATL","Paul, Chris -- LAC","Thompson, Klay -- GS"
David Mayo,Mlive Media Group,"Durant, Kevin -- OKC","George, Paul -- IND","Jordan, DeAndre -- LAC","Lillard, Damian -- POR","Harden, James -- HOU"
David Steele,Fox Sports Florida,"Durant, Kevin -- OKC","Green, Draymond -- GS","Towns, Karl-Anthony -- MIN","Paul, Chris -- LAC","Lillard, Damian -- POR"
Diamond Leung,Bay Area News Group,"Durant, Kevin -- OKC","Aldridge, LaMarcus -- SA","Drummond, Andre -- DET","Lowry, Kyle -- TOR","Paul, Chris -- LAC"
Doris Burke,ESPN,"Durant, Kevin -- OKC","Millsap, Paul -- ATL","Jordan, DeAndre -- LAC","Paul, Chris -- LAC","Lillard, Damian -- POR"
Doug Smith,The Toronto Star,"Durant, Kevin -- OKC","George, Paul -- IND","Cousins, DeMarcus -- SAC","Lowry, Kyle -- TOR","Paul, Chris -- LAC"
Dwain Price,Ft. Worth Star Telegam,"Leonard, Kawhi -- SA","Green, Draymond -- GS","Drummond, Andre -- DET","Harden, James -- HOU","Paul, Chris -- LAC"
Eddie Johnson,Fox Sports Arizona,"Leonard, Kawhi -- SA","Green, Draymond -- GS","Aldridge, LaMarcus -- SA","Paul, Chris -- LAC","Harden, James -- HOU"
Eric Collins,Hornets Radio,"Leonard, Kawhi -- SA","Green, Draymond -- GS","Jordan, DeAndre -- LAC","Harden, James -- HOU","Paul, Chris -- LAC"
Eric Hasseltine,92.9 FM ESPN/680 AM ESPN,"Leonard, Kawhi -- SA","George, Paul -- IND","Howard, Dwight -- HOU","Paul, Chris -- LAC","Lillard, Damian -- POR"
Eric Reid,Fox Sports Sun,"Durant, Kevin -- OKC","Green, Draymond -- GS","Drummond, Andre -- DET","Thompson, Klay -- GS","Paul, Chris -- LAC"
Ernie Johnson,TNT,"Durant, Kevin -- OKC","Green, Draymond -- GS","Cousins, DeMarcus -- SAC","Lillard, Damian -- POR","Paul, Chris -- LAC"
Fran Blinebury,NBA.com,"Durant, Kevin -- OKC","George, Paul -- IND","Drummond, Andre -- DET","Lillard, Damian -- POR","Paul, Chris -- LAC"
Frank Isola,Sirius Radio/New York Daily News,"Durant, Kevin -- OKC","George, Paul -- IND","Jordan, DeAndre -- LAC","Lowry, Kyle -- TOR","Lillard, Damian -- POR"
Fred McLeod,Fox Sports Ohio,"Leonard, Kawhi -- SA","Davis, Anthony -- NOP","Jordan, DeAndre -- LAC","DeRozan, DeMar -- TOR","Paul, Chris -- LAC"
Gary Gerould,Comcast SportsNet-CA,"Davis, Anthony -- NOP","Durant, Kevin -- OKC","Cousins, DeMarcus -- SAC","Paul, Chris -- LAC","Thompson, Klay -- GS"
Gary Washburn,Boston Globe,"George, Paul -- IND","Leonard, Kawhi -- SA","Jordan, DeAndre -- LAC","Harden, James -- HOU","Lowry, Kyle -- TOR"
George Blaha,WMGC / Fox Sports Detroit,"Leonard, Kawhi -- SA","Durant, Kevin -- OKC","Davis, Anthony -- NOP","Paul, Chris -- LAC","Lowry, Kyle -- TOR"
Grant Napear,Comcast SportsNet-CA,"Durant, Kevin -- OKC","George, Paul -- IND","Drummond, Andre -- DET","Thompson, Klay -- GS","Paul, Chris -- LAC"
Howard Beck,Bleacher Report,"Durant, Kevin -- OKC","Green, Draymond -- GS","Whiteside, Hassan -- MIA","Paul, Chris -- LAC","Lowry, Kyle -- TOR"
Hubie Brown,ESPN,"Durant, Kevin -- OKC","Green, Draymond -- GS","Drummond, Andre -- DET","Paul, Chris -- LAC","Thompson, Klay -- GS"
Ira Winderman,South Florida Sun Sentinel,"Millsap, Paul -- ATL","Durant, Kevin -- OKC","Davis, Anthony -- NOP","Harden, James -- HOU","Lillard, Damian -- POR"
Israel Guttierez,ESPN.com,"Durant, Kevin -- OKC","Leonard, Kawhi -- SA","Cousins, DeMarcus -- SAC","Harden, James -- HOU","Lillard, Damian -- POR"
JA Adande,ESPN.com,"Durant, Kevin -- OKC","Green, Draymond -- GS","Horford, Al -- ATL","Thompson, Klay -- GS","Paul, Chris -- LAC"
Jason Jones,Sacramento Bee,"Durant, Kevin -- OKC","Green, Draymond -- GS","Drummond, Andre -- DET","Harden, James -- HOU","Paul, Chris -- LAC"
Jason Kosmicki,Altitude Radio Network,"Millsap, Paul -- ATL","Leonard, Kawhi -- SA","Cousins, DeMarcus -- SAC","Harden, James -- HOU","Paul, Chris -- LAC"
Jason Lloyd,Akron Beacon Journal,"Durant, Kevin -- OKC","Green, Draymond -- GS","Horford, Al -- ATL","Lowry, Kyle -- TOR","Paul, Chris -- LAC"
Jeff McDonald,San Antonio Express-News,"James, LeBron -- CLE","Green, Draymond -- GS","Horford, Al -- ATL","Paul, Chris -- LAC","Lowry, Kyle -- TOR"
Jeff Turner,Fox Sports Florida,"Durant, Kevin -- OKC","Green, Draymond -- GS","Towns, Karl-Anthony -- MIN","Paul, Chris -- LAC","Lillard, Damian -- POR"
Jeff Zillgitt,USA Today,"Durant, Kevin -- OKC","Aldridge, LaMarcus -- SA","Jordan, DeAndre -- LAC","Paul, Chris -- LAC","Lillard, Damian -- POR"
Jerry Zgoda,Minneapolis Star Tribune,"Durant, Kevin -- OKC","Green, Draymond -- GS","Cousins, DeMarcus -- SAC","Lillard, Damian -- POR","Paul, Chris -- LAC"
Jessica Camerato,Comcast SportsNet,"Leonard, Kawhi -- SA","Green, Draymond -- GS","Drummond, Andre -- DET","Paul, Chris -- LAC","Lillard, Damian -- POR"
Jim Barnett,Comcast SportsNet Bay Area,"Millsap, Paul -- ATL","George, Paul -- IND","Drummond, Andre -- DET","Westbrook, Russell -- OKC","Thompson, Klay -- GS"
Jim Paschke,Fox Sports Wisconsin,"Green, Draymond -- GS","Durant, Kevin -- OKC","Jordan, DeAndre -- LAC","Thompson, Klay -- GS","Paul, Chris -- LAC"
Jim Petersen,Fox Sports North,"Durant, Kevin -- OKC","Green, Draymond -- GS","Cousins, DeMarcus -- SAC","Lowry, Kyle -- TOR","Paul, Chris -- LAC"
Jody Genessy,Deseret News,"Durant, Kevin -- OKC","Green, Draymond -- GS","Drummond, Andre -- DET","Paul, Chris -- LAC","Lowry, Kyle -- TOR"
Joe Freeman,The Oregonian,"Durant, Kevin -- OKC","Green, Draymond -- GS","Horford, Al -- ATL","Paul, Chris -- LAC","Lillard, Damian -- POR"
Joel Meyers,Fox Sports New Orleans,"Leonard, Kawhi -- SA","Millsap, Paul -- ATL","Cousins, DeMarcus -- SAC","Paul, Chris -- LAC","Lillard, Damian -- POR"
John Krawczynski,Associated Press,"Durant, Kevin -- OKC","Green, Draymond -- GS","Jordan, DeAndre -- LAC","Paul, Chris -- LAC","Lowry, Kyle -- TOR"
Jon Barry,ESPN Radio,"Leonard, Kawhi -- SA","Green, Draymond -- GS","Jordan, DeAndre -- LAC","Paul, Chris -- LAC","Thompson, Klay -- GS"
Jonathan Feigen,Houston Chronicle,"Durant, Kevin -- OKC","Millsap, Paul -- ATL","Jordan, DeAndre -- LAC","Harden, James -- HOU","Paul, Chris -- LAC"
Jose Paneda,WAQI Radio,"Green, Draymond -- GS","Leonard, Kawhi -- SA","Whiteside, Hassan -- MIA","Lillard, Damian -- POR","Paul, Chris -- LAC"
K.C. Johnson,Chicago Tribune,"Durant, Kevin -- OKC","Green, Draymond -- GS","Horford, Al -- ATL","Thompson, Klay -- GS","Paul, Chris -- LAC"
Keith Pompey,Philadelphia Inquirer,"Leonard, Kawhi -- SA","George, Paul -- IND","Jordan, DeAndre -- LAC","Wall, John -- WAS","Harden, James -- HOU"
Ken Berger,CBSSports.com,"Cousins, DeMarcus -- SAC","Durant, Kevin -- OKC","Drummond, Andre -- DET","Paul, Chris -- LAC","Thompson, Klay -- GS"
Kevin Arnovitz,ESPN.com,"Millsap, Paul -- ATL","Durant, Kevin -- OKC","Horford, Al -- ATL","Westbrook, Russell -- OKC","Lowry, Kyle -- TOR"
Kevin Calabro,ESPN Radio,"Durant, Kevin -- OKC","Green, Draymond -- GS","Drummond, Andre -- DET","Thompson, Klay -- GS","Paul, Chris -- LAC"
Lang Whitaker,NBA.com,"Durant, Kevin -- OKC","Green, Draymond -- GS","Cousins, DeMarcus -- SAC","Thompson, Klay -- GS","Paul, Chris -- LAC"
Leo Rautins,SportsNet/TSN,"Durant, Kevin -- OKC","George, Paul -- IND","Jordan, DeAndre -- LAC","Thompson, Klay -- GS","Lowry, Kyle -- TOR"
Marc Spears,The Undefeated,"Durant, Kevin -- OKC","George, Paul -- IND","Cousins, DeMarcus -- SAC","Paul, Chris -- LAC","Lillard, Damian -- POR"
Marc Stein,ESPN.com,"Durant, Kevin -- OKC","Millsap, Paul -- ATL","Jordan, DeAndre -- LAC","Paul, Chris -- LAC","Lowry, Kyle -- TOR"
Mark Boyle,107.5/1070 The Fan,"Durant, Kevin -- OKC","Green, Draymond -- GS","Jordan, DeAndre -- LAC","Paul, Chris -- LAC","Harden, James -- HOU"
Mark Followill,TXA-21/Fox Sports Net,"Leonard, Kawhi -- SA","Green, Draymond -- GS","Drummond, Andre -- DET","Harden, James -- HOU","Lillard, Damian -- POR"
Mark Medina,LA Daily News,"Green, Draymond -- GS","Durant, Kevin -- OKC","Horford, Al -- ATL","Paul, Chris -- LAC","Thompson, Klay -- GS"
Marv Albert,TNT,"Durant, Kevin -- OKC","Green, Draymond -- GS","Jordan, DeAndre -- LAC","Lillard, Damian -- POR","Paul, Chris -- LAC"
Matt Winer,NBA TV,"Durant, Kevin -- OKC","Green, Draymond -- GS","Horford, Al -- ATL","Paul, Chris -- LAC","Thompson, Klay -- GS"
Michael Cage,Fox Sports Oklahoma,"Leonard, Kawhi -- SA","DeRozan, DeMar -- TOR","Cousins, DeMarcus -- SAC","Thomas, Isaiah -- BOS","Paul, Chris -- LAC"
Michael Smith,Prime Ticket,"Leonard, Kawhi -- SA","George, Paul -- IND","Jordan, DeAndre -- LAC","Lillard, Damian -- POR","Paul, Chris -- LAC"
Michael Wilbon,ESPN,"Green, Draymond -- GS","Durant, Kevin -- OKC","Jordan, DeAndre -- LAC","Paul, Chris -- LAC","Lowry, Kyle -- TOR"
Mike Breen,ABC Sports,"Durant, Kevin -- OKC","George, Paul -- IND","Jordan, DeAndre -- LAC","Paul, Chris -- LAC","Thompson, Klay -- GS"
Mike Fratello,TNT,"Green, Draymond -- GS","Leonard, Kawhi -- SA","Jordan, DeAndre -- LAC","DeRozan, DeMar -- TOR","Butler, Jimmy -- CHI"
Mike Monroe,The Rivard Report,"Green, Draymond -- GS","Durant, Kevin -- OKC","Cousins, DeMarcus -- SAC","Lillard, Damian -- POR","Paul, Chris -- LAC"
Mike Rice,Comcast SportsNet NW,"Leonard, Kawhi -- SA","George, Paul -- IND","Cousins, DeMarcus -- SAC","Lillard, Damian -- POR","Harden, James -- HOU"
Mike Tirico,ESPN,"Durant, Kevin -- OKC","Green, Draymond -- GS","Jordan, DeAndre -- LAC","Paul, Chris -- LAC","Thompson, Klay -- GS"
Paul Coro,The Arizona Republic,"Leonard, Kawhi -- SA","Green, Draymond -- GS","Jordan, DeAndre -- LAC","Westbrook, Russell -- OKC","Lowry, Kyle -- TOR"
Pete Pranica,Fox Sports Southeast,"Durant, Kevin -- OKC","Davis, Anthony -- NOP","Towns, Karl-Anthony -- MIN","Lillard, Damian -- POR","Lowry, Kyle -- TOR"
Phil Chenier,Comcast SportsNet Mid-Atlantic,"Green, Draymond -- GS","Leonard, Kawhi -- SA","Drummond, Andre -- DET","DeRozan, DeMar -- TOR","Paul, Chris -- LAC"
Ralph Lawler,Prime Ticket,"Durant, Kevin -- OKC","Green, Draymond -- GS","Drummond, Andre -- DET","Thompson, Klay -- GS","Paul, Chris -- LAC"
Ramona Shelburne,ESPN.com,"Leonard, Kawhi -- SA","George, Paul -- IND","Jordan, DeAndre -- LAC","Lillard, Damian -- POR","Paul, Chris -- LAC"
Ric Bucher,Bleacher Report,"Durant, Kevin -- OKC","George, Paul -- IND","Cousins, DeMarcus -- SAC","Paul, Chris -- LAC","Lowry, Kyle -- TOR"
Rod Beard,Detroit News,"Leonard, Kawhi -- SA","Davis, Anthony -- NOP","Cousins, DeMarcus -- SAC","Harden, James -- HOU","Paul, Chris -- LAC"
Ron Boone,ROOT Sports,"Durant, Kevin -- OKC","Green, Draymond -- GS","Horford, Al -- ATL","Paul, Chris -- LAC","Harden, James -- HOU"
Ron Tillery,Memphis Commercial Appeal,"Durant, Kevin -- OKC","Millsap, Paul -- ATL","Green, Draymond -- GS","Paul, Chris -- LAC","Lillard, Damian -- POR"
Rusty Simmons,San Francisco Chronicle,"Durant, Kevin -- OKC","Davis, Anthony -- NOP","Cousins, DeMarcus -- SAC","Paul, Chris -- LAC","Harden, James -- HOU"
Sage Steele,ABC Sports,"Durant, Kevin -- OKC","George, Paul -- IND","Jordan, DeAndre -- LAC","Lillard, Damian -- POR","Lowry, Kyle -- TOR"
Sam Amick,USA Today,"Green, Draymond -- GS","Durant, Kevin -- OKC","Drummond, Andre -- DET","Lillard, Damian -- POR","Paul, Chris -- LAC"
Sam Smith,Bulls.com,"Leonard, Kawhi -- SA","George, Paul -- IND","Cousins, DeMarcus -- SAC","Westbrook, Russell -- OKC","Lillard, Damian -- POR"
Sean Deveney,The Sporting News,"Leonard, Kawhi -- SA","Davis, Anthony -- NOP","Drummond, Andre -- DET","Paul, Chris -- LAC","Lowry, Kyle -- TOR"
Sean Grande,98.5 The Sports Hub,"Durant, Kevin -- OKC","Green, Draymond -- GS","Drummond, Andre -- DET","Paul, Chris -- LAC","Lowry, Kyle -- TOR"
Sean Kelley,WRNO 99.5 FM,"Green, Draymond -- GS","Durant, Kevin -- OKC","Aldridge, LaMarcus -- SA","Lowry, Kyle -- TOR","Paul, Chris -- LAC"
Sherman Hamilton,NBA TV Canada,"Green, Draymond -- GS","Durant, Kevin -- OKC","Cousins, DeMarcus -- SAC","Paul, Chris -- LAC","Lowry, Kyle -- TOR"
Sherrod Blakely,CSNNE.com,"Green, Draymond -- GS","Aldridge, LaMarcus -- SA","Cousins, DeMarcus -- SAC","Lowry, Kyle -- TOR","Westbrook, Russell -- OKC"
Stefan Bondy,New York Daily News,"Durant, Kevin -- OKC","George, Paul -- IND","Cousins, DeMarcus -- SAC","Lillard, Damian -- POR","Westbrook, Russell -- OKC"
Stephanie Ready,Fox Sports Carolinas/SportSouth,"Green, Draymond -- GS","Leonard, Kawhi -- SA","Gasol, Pau -- CHI","Paul, Chris -- LAC","Thompson, Klay -- GS"
Steve Aschburner,NBA.com,"Green, Draymond -- GS","Durant, Kevin -- OKC","Jordan, DeAndre -- LAC","Paul, Chris -- LAC","Lillard, Damian -- POR"
Steve Buckhantz,Comcast SportsNet Mid-Atlantic,"Leonard, Kawhi -- SA","Green, Draymond -- GS","Jordan, DeAndre -- LAC","Paul, Chris -- LAC","Lillard, Damian -- POR"
Steve Holman,Hawks Radio Network,"James, LeBron -- CLE","Durant, Kevin -- OKC","Drummond, Andre -- DET","Lillard, Damian -- POR","Paul, Chris -- LAC"
Steve Martin,Fox Sports Carolinas/SportSouth,"George, Paul -- IND","Leonard, Kawhi -- SA","Cousins, DeMarcus -- SAC","Lillard, Damian -- POR","DeRozan, DeMar -- TOR"
Ted Davis,WTMJ Radio,"Durant, Kevin -- OKC","Davis, Anthony -- NOP","Cousins, DeMarcus -- SAC","Thompson, Klay -- GS","Paul, Chris -- LAC"
Tim Kempton,KTAR Radio,"Leonard, Kawhi -- SA","Davis, Anthony -- NOP","Towns, Karl-Anthony -- MIN","Paul, Chris -- LAC","Thomas, Isaiah -- BOS"
Tim Reynolds,Associated Press,"Durant, Kevin -- OKC","Green, Draymond -- GS","Towns, Karl-Anthony -- MIN","Paul, Chris -- LAC","Thompson, Klay -- GS"
Tom McGinnis,Sixers Radio,"George, Paul -- IND","Leonard, Kawhi -- SA","Drummond, Andre -- DET","Westbrook, Russell -- OKC","Lillard, Damian -- POR"
Zach Lowe,ESPN.com,"Green, Draymond -- GS","Durant, Kevin -- OKC","Horford, Al -- ATL","Lowry, Kyle -- TOR","Paul, Chris -- LAC"
