Voter,Affiliation,Player_1,Player_2,Player_3,Player_4,Player_5
Aaron Falk,Salt Lake Tribune,"Mudiay, Emmanuel -- DEN","Okafor, Jahlil -- PHI","Russell, D'Angelo -- LAL","Lyles, Trey -- UTA","Turner, Myles -- IND"
Adrian Chavarria,KEYH 850 AM,"Portis, Bobby -- CHI","Booker, Devin -- PHX","Marjanovic, Boban -- SA","Powell, Norman -- TOR","Turner, Myles -- IND"
Al Iannazzone,Newsday,"Russell, D'Angelo -- LAL","Jokic, Nikola -- DEN","Winslow, Justise -- MIA","Johnson, Stanley -- DET","Turner, Myles -- IND"
Alan Horton,WCCO 830-AM,"Russell, D'Angelo -- LAL","Cauley-Stein, Willie -- SAC","Okafor, Jahlil -- PHI","Lyles, Trey -- UTA","Turner, Myles -- IND"
Andre Aldridge,Fox Sports South,"Cauley-Stein, Willie -- SAC","Winslow, Justise -- MIA","Mudiay, Emmanuel -- DEN","Richardson, Josh -- MIA","Okafor, Jahlil -- PHI"
Antonio Harvey,Fox Sports Radio/620AM,"Russell, D'Angelo -- LAL","Winslow, Justise -- MIA","Johnson, Stanley -- DET","Turner, Myles -- IND","Nance Jr., Larry -- LAL"
Bill Land,Fox Sports Southwest,"Mudiay, Emmanuel -- DEN","Richardson, Josh -- MIA","Russell, D'Angelo -- LAL","Turner, Myles -- IND","Winslow, Justise -- MIA"
Bill Oram,Orange County Register,"Okafor, Jahlil -- PHI","Mudiay, Emmanuel -- DEN","Johnson, Stanley -- DET","Winslow, Justise -- MIA","Turner, Myles -- IND"
Bill Reiter,CBSSports.com,"Turner, Myles -- IND","Winslow, Justise -- MIA","Cauley-Stein, Willie -- SAC","Okafor, Jahlil -- PHI","Johnson, Stanley -- DET"
Bill Schoening,WOAI Radio,"Booker, Devin -- PHX","Jokic, Nikola -- DEN","Richardson, Josh -- MIA","Russell, D'Angelo -- LAL","Turner, Myles -- IND"
Bill Simmons,Bill Simmons Podcast/HBO,"Turner, Myles -- IND","Okafor, Jahlil -- PHI","Mudiay, Emmanuel -- DEN","Lyles, Trey -- UTA","Russell, D'Angelo -- LAL"
Bill Wennington,ESPN AM 1000,"Booker, Devin -- PHX","Kaminsky, Frank -- CHA","Okafor, Jahlil -- PHI","Turner, Myles -- IND","Johnson, Stanley -- DET"
Bob Fitzgerald,Comcast SportsNet Bay Area,"Russell, D'Angelo -- LAL","Jokic, Nikola -- DEN","Portis, Bobby -- CHI","Kaminsky, Frank -- CHA","Mudiay, Emmanuel -- DEN"
Bob Rathbun,Fox Sports South,"Winslow, Justise -- MIA","Mudiay, Emmanuel -- DEN","Johnson, Stanley -- DET","Kaminsky, Frank -- CHA","Richardson, Josh -- MIA"
Brian Lewis,New York Post,"Lyles, Trey -- UTA","Russell, D'Angelo -- LAL","Mudiay, Emmanuel -- DEN","Winslow, Justise -- MIA","Turner, Myles -- IND"
Brian Mahoney,Associated Press,"Winslow, Justise -- MIA","Richardson, Josh -- MIA","Russell, D'Angelo -- LAL","Powell, Norman -- TOR","Jokic, Nikola -- DEN"
Brian Sieman,The Beast 980,"Russell, D'Angelo -- LAL","Turner, Myles -- IND","Cauley-Stein, Willie -- SAC","Johnson, Stanley -- DET","Jokic, Nikola -- DEN"
Brian Windhorst,ESPN.com,"Okafor, Jahlil -- PHI","Mudiay, Emmanuel -- DEN","Russell, D'Angelo -- LAL","Winslow, Justise -- MIA","Richardson, Josh -- MIA"
Cedric Maxwell,98.5 The Sports Hub,"Richardson, Josh -- MIA","Winslow, Justise -- MIA","Cauley-Stein, Willie -- SAC","Russell, D'Angelo -- LAL","Grant, Jerian -- NYK"
Charles Gardner,Milwaukee Journal Sentinel,"Kaminsky, Frank -- CHA","Mudiay, Emmanuel -- DEN","Winslow, Justise -- MIA","Okafor, Jahlil -- PHI","Russell, D'Angelo -- LAL"
Chris Broussard,ESPN,"Johnson, Stanley -- DET","Okafor, Jahlil -- PHI","Mudiay, Emmanuel -- DEN","Turner, Myles -- IND","Richardson, Josh -- MIA"
Chris Carrino,WFAN (660),"Booker, Devin -- PHX","Russell, D'Angelo -- LAL","Johnson, Stanley -- DET","Kaminsky, Frank -- CHA","Mudiay, Emmanuel -- DEN"
Chris Dempsey,Denver Post,"Turner, Myles -- IND","Russell, D'Angelo -- LAL","Okafor, Jahlil -- PHI","Cauley-Stein, Willie -- SAC","McConnell, TJ -- PHI"
Chris Denari,Fox Sports Indiana,"Okafor, Jahlil -- PHI","Russell, D'Angelo -- LAL","Mudiay, Emmanuel -- DEN","Winslow, Justise -- MIA","Kaminsky, Frank -- CHA"
Chris Haynes,Northeast Ohio Media Group/Cleveland.com,"Mudiay, Emmanuel -- DEN","Turner, Myles -- IND","Johnson, Stanley -- DET","Jokic, Nikola -- DEN","Cauley-Stein, Willie -- SAC"
Chris Marlowe,Altitude Sports & Entertainment,"Cauley-Stein, Willie -- SAC","Okafor, Jahlil -- PHI","Turner, Myles -- IND","Russell, D'Angelo -- LAL","Johnson, Stanley -- DET"
Chris Sheridan,Sheridanhoops.com,"Winslow, Justise -- MIA","Mudiay, Emmanuel -- DEN","Okafor, Jahlil -- PHI","Kaminsky, Frank -- CHA","Turner, Myles -- IND"
Craig Ackerman,Sportstalk 790 AM,"Turner, Myles -- IND","Russell, D'Angelo -- LAL","Winslow, Justise -- MIA","Mudiay, Emmanuel -- DEN","Richardson, Josh -- MIA"
Dan Woike,Orange County Register,"Kaminsky, Frank -- CHA","Turner, Myles -- IND","Okafor, Jahlil -- PHI","Booker, Devin -- PHX","Mudiay, Emmanuel -- DEN"
Dante Marchitelli,Fox Sports Florida,"Okafor, Jahlil -- PHI","Mudiay, Emmanuel -- DEN","Russell, D'Angelo -- LAL","Kaminsky, Frank -- CHA","Turner, Myles -- IND"
Dave Johnson,106.7 The Fan,"Kaminsky, Frank -- CHA","Jokic, Nikola -- DEN","Johnson, Stanley -- DET","Russell, D'Angelo -- LAL","Winslow, Justise -- MIA"
David Aldridge,TNT,"Booker, Devin -- PHX","Simmons, Jonathon -- SA","Turner, Myles -- IND","Jokic, Nikola -- DEN","Richardson, Josh -- MIA"
David Mayo,Mlive Media Group,"Russell, D'Angelo -- LAL","Turner, Myles -- IND","Winslow, Justise -- MIA","Johnson, Stanley -- DET","Richardson, Josh -- MIA"
David Steele,Fox Sports Florida,"Russell, D'Angelo -- LAL","Mudiay, Emmanuel -- DEN","Turner, Myles -- IND","Richardson, Josh -- MIA","Kaminsky, Frank -- CHA"
David Wesley,Fox Sports New Orleans,"Hollis-Jefferson, Rondae -- BKN","Winslow, Justise -- MIA","Young, Joe -- IND","Turner, Myles -- IND","Cauley-Stein, Willie -- SAC"
Dell Curry,Fox Sports Carolinas/SportSouth,"Cauley-Stein, Willie -- SAC","Johnson, Stanley -- DET","Mudiay, Emmanuel -- DEN","Russell, D'Angelo -- LAL","Winslow, Justise -- MIA"
Doris Burke,ESPN,"Turner, Myles -- IND","Okafor, Jahlil -- PHI","Russell, D'Angelo -- LAL","Johnson, Stanley -- DET","Mudiay, Emmanuel -- DEN"
Doug Smith,The Toronto Star,"Powell, Norman -- TOR","Russell, D'Angelo -- LAL","Kaminsky, Frank -- CHA","Marjanovic, Boban -- SA","Lyles, Trey -- UTA"
Dwain Price,Ft. Worth Star Telegam,"Turner, Myles -- IND","Winslow, Justise -- MIA","Cauley-Stein, Willie -- SAC","Jokic, Nikola -- DEN","Anderson, Justin -- DAL"
Eddie Johnson,Fox Sports Arizona,"Turner, Myles -- IND","Winslow, Justise -- MIA","Russell, D'Angelo -- LAL","Jokic, Nikola -- DEN","Johnson, Stanley -- DET"
Eddie Sefko,Dallas Morning News,"Turner, Myles -- IND","Cauley-Stein, Willie -- SAC","Anderson, Justin -- DAL","Booker, Devin -- PHX","Lyles, Trey -- UTA"
Eric Hasseltine,92.9 FM ESPN/680 AM ESPN,"Turner, Myles -- IND","Mudiay, Emmanuel -- DEN","Russell, D'Angelo -- LAL","Kaminsky, Frank -- CHA","Johnson, Stanley -- DET"
Ernie Johnson,TNT,"Mudiay, Emmanuel -- DEN","Portis, Bobby -- CHI","Jokic, Nikola -- DEN","Winslow, Justise -- MIA","Kaminsky, Frank -- CHA"
Fran Blinebury,NBA.com,"Russell, D'Angelo -- LAL","Turner, Myles -- IND","Richardson, Josh -- MIA","Mudiay, Emmanuel -- DEN","Okafor, Jahlil -- PHI"
Frank Isola,Sirius Radio/New York Daily News,"Winslow, Justise -- MIA","Portis, Bobby -- CHI","Richardson, Josh -- MIA","Jokic, Nikola -- DEN","Kaminsky, Frank -- CHA"
Fred McLeod,Fox Sports Ohio,"Jokic, Nikola -- DEN","Russell, D'Angelo -- LAL","Turner, Myles -- IND","Kaminsky, Frank -- CHA","Winslow, Justise -- MIA"
Gary Gerould,Comcast SportsNet-CA,"Cauley-Stein, Willie -- SAC","Turner, Myles -- IND","Okafor, Jahlil -- PHI","Mudiay, Emmanuel -- DEN","Richardson, Josh -- MIA"
Gary Washburn,Boston Globe,"Jokic, Nikola -- DEN","Winslow, Justise -- MIA","Russell, D'Angelo -- LAL","Turner, Myles -- IND","Richardson, Josh -- MIA"
George Blaha,WMGC / Fox Sports Detroit,"Russell, D'Angelo -- LAL","Jokic, Nikola -- DEN","Winslow, Justise -- MIA","Okafor, Jahlil -- PHI","Kaminsky, Frank -- CHA"
Glenn Consor,106.7 The Fan,"Booker, Devin -- PHX","Hezonja, Mario -- ORL","Russell, D'Angelo -- LAL","Richardson, Josh -- MIA","Winslow, Justise -- MIA"
Grant Napear,Comcast SportsNet-CA,"Cauley-Stein, Willie -- SAC","Mudiay, Emmanuel -- DEN","Lyles, Trey -- UTA","Winslow, Justise -- MIA","Okafor, Jahlil -- PHI"
Howard Beck,Bleacher Report,"Russell, D'Angelo -- LAL","Booker, Devin -- PHX","Turner, Myles -- IND","Winslow, Justise -- MIA","Kaminsky, Frank -- CHA"
Hubie Brown,ESPN,"Booker, Devin -- PHX","Jokic, Nikola -- DEN","Mudiay, Emmanuel -- DEN","Portis, Bobby -- CHI","Russell, D'Angelo -- LAL"
Israel Guttierez,ESPN.com,"Cauley-Stein, Willie -- SAC","Russell, D'Angelo -- LAL","Okafor, Jahlil -- PHI","Johnson, Stanley -- DET","Turner, Myles -- IND"
JA Adande,ESPN.com,"Okafor, Jahlil -- PHI","Mudiay, Emmanuel -- DEN","Russell, D'Angelo -- LAL","Turner, Myles -- IND","Cauley-Stein, Willie -- SAC"
Jason Jackson,Fox Sports Sun,"Winslow, Justise -- MIA","Richardson, Josh -- MIA","Kaminsky, Frank -- CHA","Russell, D'Angelo -- LAL","Turner, Myles -- IND"
Jason Jones,Sacramento Bee,"Russell, D'Angelo -- LAL","Johnson, Stanley -- DET","Mudiay, Emmanuel -- DEN","Winslow, Justise -- MIA","Cauley-Stein, Willie -- SAC"
Jason Lieser,Palm Beach Post,"Richardson, Josh -- MIA","Cauley-Stein, Willie -- SAC","Turner, Myles -- IND","Okafor, Jahlil -- PHI","Jokic, Nikola -- DEN"
Jason Quick,Comcast SportsNet NW,"Turner, Myles -- IND","Jokic, Nikola -- DEN","Cauley-Stein, Willie -- SAC","Russell, D'Angelo -- LAL","Winslow, Justise -- MIA"
Jeff McDonald,San Antonio Express-News,"Russell, D'Angelo -- LAL","Mudiay, Emmanuel -- DEN","Okafor, Jahlil -- PHI","Winslow, Justise -- MIA","Cauley-Stein, Willie -- SAC"
Jeff Zillgitt,USA Today,"Russell, D'Angelo -- LAL","Mudiay, Emmanuel -- DEN","Turner, Myles -- IND","Richardson, Josh -- MIA","Winslow, Justise -- MIA"
Jerry Zgoda,Minneapolis Star Tribune,"Cauley-Stein, Willie -- SAC","Lyles, Trey -- UTA","Mudiay, Emmanuel -- DEN","Russell, D'Angelo -- LAL","Okafor, Jahlil -- PHI"
Jessica Camerato,Comcast SportsNet,"Mudiay, Emmanuel -- DEN","Booker, Devin -- PHX","Russell, D'Angelo -- LAL","Turner, Myles -- IND","Cauley-Stein, Willie -- SAC"
Jim Paschke,Fox Sports Wisconsin,"Winslow, Justise -- MIA","Richardson, Josh -- MIA","Booker, Devin -- PHX","Russell, D'Angelo -- LAL","Mudiay, Emmanuel -- DEN"
Jim Petersen,Fox Sports North,"Okafor, Jahlil -- PHI","Mudiay, Emmanuel -- DEN","Turner, Myles -- IND","Lyles, Trey -- UTA","Cauley-Stein, Willie -- SAC"
Jim Spanarkel,YES Network,"Kaminsky, Frank -- CHA","Okafor, Jahlil -- PHI","Jokic, Nikola -- DEN","Russell, D'Angelo -- LAL","Lyles, Trey -- UTA"
Jody Genessy,Deseret News,"Turner, Myles -- IND","Russell, D'Angelo -- LAL","Lyles, Trey -- UTA","Cauley-Stein, Willie -- SAC","Kaminsky, Frank -- CHA"
Joel Meyers,Fox Sports New Orleans,"Mudiay, Emmanuel -- DEN","Russell, D'Angelo -- LAL","Jokic, Nikola -- DEN","Kaminsky, Frank -- CHA","Cauley-Stein, Willie -- SAC"
John Denton,OrlandoMagic.com,"Okafor, Jahlil -- PHI","Richardson, Josh -- MIA","Turner, Myles -- IND","Johnson, Stanley -- DET","Hezonja, Mario -- ORL"
John Krawczynski,Associated Press,"Okafor, Jahlil -- PHI","Turner, Myles -- IND","Lyles, Trey -- UTA","Russell, D'Angelo -- LAL","Cauley-Stein, Willie -- SAC"
John Michael,Cavaliers Radio,"Mudiay, Emmanuel -- DEN","Richardson, Josh -- MIA","Turner, Myles -- IND","Jokic, Nikola -- DEN","Russell, D'Angelo -- LAL"
Jon Barry,ESPN Radio,"Mudiay, Emmanuel -- DEN","Richardson, Josh -- MIA","Winslow, Justise -- MIA","Portis, Bobby -- CHI","Russell, D'Angelo -- LAL"
Jonathan Feigen,Houston Chronicle,"Mudiay, Emmanuel -- DEN","Turner, Myles -- IND","Russell, D'Angelo -- LAL","Johnson, Stanley -- DET","Winslow, Justise -- MIA"
Keith Pompey,Philadelphia Inquirer,"Booker, Devin -- PHX","Mudiay, Emmanuel -- DEN","Turner, Myles -- IND","Johnson, Stanley -- DET","Jokic, Nikola -- DEN"
Ken Berger,CBSSports.com,"Booker, Devin -- PHX","Cauley-Stein, Willie -- SAC","Turner, Myles -- IND","Portis, Bobby -- CHI","Russell, D'Angelo -- LAL"
Kevin Arnovitz,ESPN.com,"Booker, Devin -- PHX","Okafor, Jahlil -- PHI","Kaminsky, Frank -- CHA","Cauley-Stein, Willie -- SAC","Russell, D'Angelo -- LAL"
Kevin Calabro,ESPN Radio,"Richardson, Josh -- MIA","McConnell, TJ -- PHI","Turner, Myles -- IND","Johnson, Stanley -- DET","Jokic, Nikola -- DEN"
Lang Whitaker,NBA.com,"Mudiay, Emmanuel -- DEN","Turner, Myles -- IND","Russell, D'Angelo -- LAL","Winslow, Justise -- MIA","Johnson, Stanley -- DET"
Leo Rautins,SportsNet/TSN,"Jokic, Nikola -- DEN","Turner, Myles -- IND","Kaminsky, Frank -- CHA","Richardson, Josh -- MIA","Russell, D'Angelo -- LAL"
Marc Spears,The Undefeated,"Jokic, Nikola -- DEN","Mudiay, Emmanuel -- DEN","Turner, Myles -- IND","Russell, D'Angelo -- LAL","Cauley-Stein, Willie -- SAC"
Marc Stein,ESPN.com,"Turner, Myles -- IND","Okafor, Jahlil -- PHI","Kaminsky, Frank -- CHA","Russell, D'Angelo -- LAL","Cauley-Stein, Willie -- SAC"
Marc Zumoff,Sixers TV,"Booker, Devin -- PHX","Mudiay, Emmanuel -- DEN","Turner, Myles -- IND","Winslow, Justise -- MIA","Johnson, Stanley -- DET"
Mark Boyle,107.5/1070 The Fan,"Russell, D'Angelo -- LAL","Turner, Myles -- IND","Mudiay, Emmanuel -- DEN","Winslow, Justise -- MIA","Lyles, Trey -- UTA"
Mark Followill,TXA-21/Fox Sports Net,"Johnson, Stanley -- DET","Jokic, Nikola -- DEN","Russell, D'Angelo -- LAL","Mudiay, Emmanuel -- DEN","Turner, Myles -- IND"
Mark Medina,LA Daily News,"Mudiay, Emmanuel -- DEN","Johnson, Stanley -- DET","Winslow, Justise -- MIA","Turner, Myles -- IND","Lyles, Trey -- UTA"
Marv Albert,TNT,"Jokic, Nikola -- DEN","Richardson, Josh -- MIA","Russell, D'Angelo -- LAL","Turner, Myles -- IND","Winslow, Justise -- MIA"
Matt Devlin,SportsNet/TSN,"Jokic, Nikola -- DEN","Turner, Myles -- IND","Mudiay, Emmanuel -- DEN","Kaminsky, Frank -- CHA","Russell, D'Angelo -- LAL"
Matt Pinto,WWLS / 98.1,"Mudiay, Emmanuel -- DEN","Russell, D'Angelo -- LAL","Kaminsky, Frank -- CHA","Jokic, Nikola -- DEN","Johnson, Stanley -- DET"
Matt Winer,NBA TV,"Okafor, Jahlil -- PHI","Richardson, Josh -- MIA","Booker, Devin -- PHX","Johnson, Stanley -- DET","Russell, D'Angelo -- LAL"
Michael Cage,Fox Sports Oklahoma,"Mudiay, Emmanuel -- DEN","Russell, D'Angelo -- LAL","Turner, Myles -- IND","Kaminsky, Frank -- CHA","Johnson, Stanley -- DET"
Michael Wilbon,ESPN,"Winslow, Justise -- MIA","Russell, D'Angelo -- LAL","Jokic, Nikola -- DEN","Mudiay, Emmanuel -- DEN","Turner, Myles -- IND"
Mike Breen,ABC Sports,"Turner, Myles -- IND","Winslow, Justise -- MIA","Mudiay, Emmanuel -- DEN","Johnson, Stanley -- DET","Portis, Bobby -- CHI"
Mike Crispino,MSG Network,"Okafor, Jahlil -- PHI","Russell, D'Angelo -- LAL","Kaminsky, Frank -- CHA","Cauley-Stein, Willie -- SAC","Jokic, Nikola -- DEN"
Mike Fratello,TNT,"Winslow, Justise -- MIA","Jokic, Nikola -- DEN","Russell, D'Angelo -- LAL","Mudiay, Emmanuel -- DEN","Booker, Devin -- PHX"
Mike Gorman,Comcast SportsNet New England,"Booker, Devin -- PHX","Russell, D'Angelo -- LAL","Richardson, Josh -- MIA","Lyles, Trey -- UTA","Winslow, Justise -- MIA"
Mike Inglis,WAXY Radio,"Cauley-Stein, Willie -- SAC","Richardson, Josh -- MIA","Kaminsky, Frank -- CHA","Nance Jr., Larry -- LAL","Winslow, Justise -- MIA"
Mike Monroe,The Rivard Report,"Jokic, Nikola -- DEN","Booker, Devin -- PHX","Russell, D'Angelo -- LAL","Turner, Myles -- IND","Cauley-Stein, Willie -- SAC"
Mike Rice,Comcast SportsNet NW,"Russell, D'Angelo -- LAL","Cauley-Stein, Willie -- SAC","Turner, Myles -- IND","Lyles, Trey -- UTA","Winslow, Justise -- MIA"
Mike Tirico,ESPN,"Okafor, Jahlil -- PHI","Turner, Myles -- IND","Russell, D'Angelo -- LAL","Mudiay, Emmanuel -- DEN","Portis, Bobby -- CHI"
Nate Taylor,Indianapolis Star,"Booker, Devin -- PHX","Portis, Bobby -- CHI","Lyles, Trey -- UTA","Kaminsky, Frank -- CHA","Payne, Cameron -- OKC"
Paul Coro,The Arizona Republic,"Turner, Myles -- IND","Russell, D'Angelo -- LAL","Winslow, Justise -- MIA","Richardson, Josh -- MIA","Mudiay, Emmanuel -- DEN"
Pete Pranica,Fox Sports Southeast,"Mudiay, Emmanuel -- DEN","Jokic, Nikola -- DEN","Simmons, Jonathon -- SA","Turner, Myles -- IND","Lyles, Trey -- UTA"
Phil Chenier,Comcast SportsNet Mid-Atlantic,"Cauley-Stein, Willie -- SAC","Mudiay, Emmanuel -- DEN","Jokic, Nikola -- DEN","Winslow, Justise -- MIA","Hezonja, Mario -- ORL"
Ralph Lawler,Prime Ticket,"Russell, D'Angelo -- LAL","Turner, Myles -- IND","Jokic, Nikola -- DEN","Johnson, Stanley -- DET","Kaminsky, Frank -- CHA"
Ramona Shelburne,ESPN.com,"Turner, Myles -- IND","Okafor, Jahlil -- PHI","Russell, D'Angelo -- LAL","Lyles, Trey -- UTA","Cauley-Stein, Willie -- SAC"
Ric Bucher,Bleacher Report,"Huertas, Marcelo -- LAL","Mudiay, Emmanuel -- DEN","Portis, Bobby -- CHI","Booker, Devin -- PHX","Russell, D'Angelo -- LAL"
Rick Bonnell,Charlotte Observer,"Kaminsky, Frank -- CHA","Mudiay, Emmanuel -- DEN","Nance Jr., Larry -- LAL","Okafor, Jahlil -- PHI","Winslow, Justise -- MIA"
Rod Beard,Detroit News,"Cauley-Stein, Willie -- SAC","Lyles, Trey -- UTA","Hollis-Jefferson, Rondae -- BKN","Johnson, Stanley -- DET","Turner, Myles -- IND"
Ron Boone,ROOT Sports,"Russell, D'Angelo -- LAL","Okafor, Jahlil -- PHI","Winslow, Justise -- MIA","Richardson, Josh -- MIA","Cauley-Stein, Willie -- SAC"
Ron Tillery,Memphis Commercial Appeal,"Russell, D'Angelo -- LAL","Mudiay, Emmanuel -- DEN","Cauley-Stein, Willie -- SAC","Portis, Bobby -- CHI","Kaminsky, Frank -- CHA"
Royce Young,ESPN.com,"Okafor, Jahlil -- PHI","Johnson, Stanley -- DET","Lyles, Trey -- UTA","Mudiay, Emmanuel -- DEN","Winslow, Justise -- MIA"
Rusty Simmons,San Francisco Chronicle,"Winslow, Justise -- MIA","Russell, D'Angelo -- LAL","Johnson, Stanley -- DET","Turner, Myles -- IND","Jokic, Nikola -- DEN"
Sage Steele,ABC Sports,"Russell, D'Angelo -- LAL","Turner, Myles -- IND","Cauley-Stein, Willie -- SAC","Okafor, Jahlil -- PHI","Mudiay, Emmanuel -- DEN"
Sam Amick,USA Today,"Booker, Devin -- PHX","Turner, Myles -- IND","Cauley-Stein, Willie -- SAC","Richardson, Josh -- MIA","Winslow, Justise -- MIA"
Sam Smith,Bulls.com,"Jokic, Nikola -- DEN","Kaminsky, Frank -- CHA","Johnson, Stanley -- DET","Russell, D'Angelo -- LAL","Richardson, Josh -- MIA"
Scott Hastings,Altitude Sports & Entertainment,"Mudiay, Emmanuel -- DEN","Booker, Devin -- PHX","Russell, D'Angelo -- LAL","Richardson, Josh -- MIA","Cauley-Stein, Willie -- SAC"
Sean Deveney,The Sporting News,"Portis, Bobby -- CHI","Cauley-Stein, Willie -- SAC","Russell, D'Angelo -- LAL","Winslow, Justise -- MIA","Kaminsky, Frank -- CHA"
Sean Grande,98.5 The Sports Hub,"Kaminsky, Frank -- CHA","Russell, D'Angelo -- LAL","Winslow, Justise -- MIA","Lyles, Trey -- UTA","Turner, Myles -- IND"
Sean Kelley,WRNO 99.5 FM,"Winslow, Justise -- MIA","Mudiay, Emmanuel -- DEN","Okafor, Jahlil -- PHI","Neto, Raul -- UTA","Cauley-Stein, Willie -- SAC"
Stacey King,Comcast SportsNet Chicago,"Winslow, Justise -- MIA","Russell, D'Angelo -- LAL","Mudiay, Emmanuel -- DEN","Jokic, Nikola -- DEN","Richardson, Josh -- MIA"
Stephanie Ready,Fox Sports Carolinas/SportSouth,"Booker, Devin -- PHX","Mudiay, Emmanuel -- DEN","Winslow, Justise -- MIA","Turner, Myles -- IND","Kaminsky, Frank -- CHA"
Steve Aschburner,NBA.com,"Kaminsky, Frank -- CHA","Mudiay, Emmanuel -- DEN","Russell, D'Angelo -- LAL","Johnson, Stanley -- DET","Lyles, Trey -- UTA"
Steve Holman,Hawks Radio Network,"Kaminsky, Frank -- CHA","Mudiay, Emmanuel -- DEN","Winslow, Justise -- MIA","Russell, D'Angelo -- LAL","Johnson, Stanley -- DET"
Steve Popper,The Record,"Turner, Myles -- IND","Russell, D'Angelo -- LAL","Richardson, Josh -- MIA","Okafor, Jahlil -- PHI","Mudiay, Emmanuel -- DEN"
Ted Davis,WTMJ Radio,"Jokic, Nikola -- DEN","Richardson, Josh -- MIA","Johnson, Stanley -- DET","Hezonja, Mario -- ORL","Lyles, Trey -- UTA"
Tim Kempton,KTAR Radio,"Russell, D'Angelo -- LAL","Lyles, Trey -- UTA","Okafor, Jahlil -- PHI","Turner, Myles -- IND","McConnell, TJ -- PHI"
Tim Reynolds,Associated Press,"Richardson, Josh -- MIA","Winslow, Justise -- MIA","Mudiay, Emmanuel -- DEN","Turner, Myles -- IND","Kaminsky, Frank -- CHA"
Tim Roye,KNBR Radio,"Turner, Myles -- IND","Cauley-Stein, Willie -- SAC","Russell, D'Angelo -- LAL","Johnson, Stanley -- DET","Kaminsky, Frank -- CHA"
Vince Goodwill,CSNChicago.com,"Mudiay, Emmanuel -- DEN","Russell, D'Angelo -- LAL","Turner, Myles -- IND","Winslow, Justise -- MIA","Cauley-Stein, Willie -- SAC"
Zach Lowe,ESPN.com,"Russell, D'Angelo -- LAL","Lyles, Trey -- UTA","Turner, Myles -- IND","Okafor, Jahlil -- PHI","Kaminsky, Frank -- CHA"
