Voter,Affiliation,Forward_1,Forward_2,Center,Guard_1,Guard_2
Ailene Voisin,Sacramento Bee,"James, LeBron (CLE)","Antetokounmpo, Giannis (MIL)","Davis, Anthony (NOP)","Harden, James (HOU)","Lillard, Damian (POR)"
Amin Elhassan,ESPN.com,"Durant, Kevin (GSW)","James, LeBron (CLE)","Davis, Anthony (NOP)","Lillard, Damian (POR)","Harden, James (HOU)"
Andrew Sharp,Sports Illustrated,"Durant, Kevin (GSW)","James, LeBron (CLE)","Davis, Anthony (NOP)","Harden, James (HOU)","Lillard, Damian (POR)"
Anthony Slater,The Athletic,"James, LeBron (CLE)","Durant, Kevin (GSW)","Davis, Anthony (NOP)","Lillard, Damian (POR)","Harden, James (HOU)"
Ben Golliver,Sports Illustrated,"James, LeBron (CLE)","Durant, Kevin (GSW)","Davis, Anthony (NOP)","Harden, James (HOU)","Lillard, Damian (POR)"
Bill Oram,Orange County Register,"Antetokounmpo, Giannis (MIL)","James, LeBron (CLE)","Davis, Anthony (NOP)","Lillard, Damian (POR)","Harden, James (HOU)"
Bill Simmons,The Ringer,"James, LeBron (CLE)","Durant, Kevin (GSW)","Davis, Anthony (NOP)","Harden, James (HOU)","Lillard, Damian (POR)"
Brent Barry,Turner,"James, LeBron (CLE)","Durant, Kevin (GSW)","Davis, Anthony (NOP)","Lillard, Damian (POR)","Harden, James (HOU)"
Brett Dawson,The Oklahoman,"Antetokounmpo, Giannis (MIL)","James, LeBron (CLE)","Davis, Anthony (NOP)","Harden, James (HOU)","Lillard, Damian (POR)"
Brian Mahoney,Associated Press,"James, LeBron (CLE)","Davis, Anthony (NOP)","Aldridge, LaMarcus (SAS)","Harden, James (HOU)","Lillard, Damian (POR)"
Brian Windhorst,ESPN.com,"James, LeBron (CLE)","Durant, Kevin (GSW)","Davis, Anthony (NOP)","Harden, James (HOU)","Lillard, Damian (POR)"
Cassidy Hubbarth,ESPN,"Durant, Kevin (GSW)","James, LeBron (CLE)","Davis, Anthony (NOP)","Harden, James (HOU)","Curry, Stephen (GSW)"
Chase Hughes,NBCSportsWashington.com,"James, LeBron (CLE)","Antetokounmpo, Giannis (MIL)","Davis, Anthony (NOP)","Harden, James (HOU)","Westbrook, Russell (OKC)"
Chris Broussard,Fox Sports,"James, LeBron (CLE)","Durant, Kevin (GSW)","Davis, Anthony (NOP)","Harden, James (HOU)","Westbrook, Russell (OKC)"
Chris Haynes,ESPN.com,"James, LeBron (CLE)","Davis, Anthony (NOP)","Embiid, Joel (PHI)","Harden, James (HOU)","Lillard, Damian (POR)"
Chris Mannix,Yahoo!,"James, LeBron (CLE)","Embiid, Joel (PHI)","Davis, Anthony (NOP)","Harden, James (HOU)","Lillard, Damian (POR)"
Chris Webber,Turner,"Durant, Kevin (GSW)","James, LeBron (CLE)","Davis, Anthony (NOP)","Harden, James (HOU)","Lillard, Damian (POR)"
Clifton Brown,Indianapolis Star,"Durant, Kevin (GSW)","James, LeBron (CLE)","Davis, Anthony (NOP)","Harden, James (HOU)","Lillard, Damian (POR)"
Connor Letourneau,San Francisco Chronicle,"James, LeBron (CLE)","Antetokounmpo, Giannis (MIL)","Davis, Anthony (NOP)","Lillard, Damian (POR)","Harden, James (HOU)"
Dave McMenamin,ESPN.com,"James, LeBron (CLE)","Durant, Kevin (GSW)","Davis, Anthony (NOP)","Harden, James (HOU)","Lillard, Damian (POR)"
David Aldridge,Turner,"Davis, Anthony (NOP)","James, LeBron (CLE)","Embiid, Joel (PHI)","Harden, James (HOU)","Lillard, Damian (POR)"
Davide Chinellato,La Gazzetta dello Sport,"Durant, Kevin (GSW)","James, LeBron (CLE)","Davis, Anthony (NOP)","Lillard, Damian (POR)","Harden, James (HOU)"
Dennis Scott,Turner,"Durant, Kevin (GSW)","James, LeBron (CLE)","Davis, Anthony (NOP)","Curry, Stephen (GSW)","Harden, James (HOU)"
Diego Martínez Cabrera,Periódico Reforma,"James, LeBron (CLE)","Durant, Kevin (GSW)","Davis, Anthony (NOP)","Harden, James (HOU)","Lillard, Damian (POR)"
Doris Burke,ABC/ESPN,"James, LeBron (CLE)","Antetokounmpo, Giannis (MIL)","Davis, Anthony (NOP)","Harden, James (HOU)","Westbrook, Russell (OKC)"
Eddie Sefko,Dallas Morning News,"James, LeBron (CLE)","Antetokounmpo, Giannis (MIL)","Davis, Anthony (NOP)","Harden, James (HOU)","DeRozan, DeMar (TOR)"
Elliott Teaford,Southern California News Group,"James, LeBron (CLE)","Antetokounmpo, Giannis (MIL)","Davis, Anthony (NOP)","Harden, James (HOU)","Westbrook, Russell (OKC)"
Ernie Johnson,Turner,"James, LeBron (CLE)","Durant, Kevin (GSW)","Davis, Anthony (NOP)","Harden, James (HOU)","Westbrook, Russell (OKC)"
Flavio Tranquillo,Sky Italia,"James, LeBron (CLE)","Durant, Kevin (GSW)","Davis, Anthony (NOP)","Harden, James (HOU)","Lillard, Damian (POR)"
Frank Isola,Sirius Radio/New York Daily News,"James, LeBron (CLE)","Antetokounmpo, Giannis (MIL)","Davis, Anthony (NOP)","Harden, James (HOU)","Lillard, Damian (POR)"
Gary Washburn,Boston Globe,"James, LeBron (CLE)","Durant, Kevin (GSW)","Embiid, Joel (PHI)","Westbrook, Russell (OKC)","Harden, James (HOU)"
Gina Mizell,Denver Post,"James, LeBron (CLE)","Antetokounmpo, Giannis (MIL)","Davis, Anthony (NOP)","Harden, James (HOU)","Lillard, Damian (POR)"
Greg Anthony,Turner,"Davis, Anthony (NOP)","James, LeBron (CLE)","Embiid, Joel (PHI)","Harden, James (HOU)","Lillard, Damian (POR)"
Greg Logan,Newsday,"James, LeBron (CLE)","Durant, Kevin (GSW)","Davis, Anthony (NOP)","Harden, James (HOU)","Westbrook, Russell (OKC)"
Howard Beck,Bleacher Report,"James, LeBron (CLE)","Davis, Anthony (NOP)","Embiid, Joel (PHI)","Harden, James (HOU)","Lillard, Damian (POR)"
Jackie MacMullan,ESPN.com,"James, LeBron (CLE)","Durant, Kevin (GSW)","Davis, Anthony (NOP)","Harden, James (HOU)","Lillard, Damian (POR)"
Jalen Rose,ABC/ESPN,"Durant, Kevin (GSW)","James, LeBron (CLE)","Davis, Anthony (NOP)","Harden, James (HOU)","Westbrook, Russell (OKC)"
Jared Greenberg,Turner,"James, LeBron (CLE)","Durant, Kevin (GSW)","Davis, Anthony (NOP)","Harden, James (HOU)","Lillard, Damian (POR)"
Jason Jones,Sacramento Bee,"Durant, Kevin (GSW)","James, LeBron (CLE)","Davis, Anthony (NOP)","Harden, James (HOU)","Lillard, Damian (POR)"
Jason Lloyd,The Athletic,"James, LeBron (CLE)","Durant, Kevin (GSW)","Davis, Anthony (NOP)","Harden, James (HOU)","Lillard, Damian (POR)"
Jason Quick,NBC Sports Northwest,"James, LeBron (CLE)","Durant, Kevin (GSW)","Embiid, Joel (PHI)","Harden, James (HOU)","Lillard, Damian (POR)"
Jeff McDonald,San Antonio Express‐News,"James, LeBron (CLE)","Durant, Kevin (GSW)","Davis, Anthony (NOP)","Harden, James (HOU)","Lillard, Damian (POR)"
Jeff Zillgitt,USA Today,"James, LeBron (CLE)","Durant, Kevin (GSW)","Davis, Anthony (NOP)","Harden, James (HOU)","Lillard, Damian (POR)"
Jerry Zgoda,Minneapolis Star Tribune,"James, LeBron (CLE)","Durant, Kevin (GSW)","Davis, Anthony (NOP)","Harden, James (HOU)","Lillard, Damian (POR)"
Joe Cowley,Chicago Sun‐Times,"James, LeBron (CLE)","Antetokounmpo, Giannis (MIL)","Davis, Anthony (NOP)","Harden, James (HOU)","Butler, Jimmy (MIN)"
John Schuhmann,NBA.com,"Durant, Kevin (GSW)","James, LeBron (CLE)","Davis, Anthony (NOP)","Harden, James (HOU)","Lillard, Damian (POR)"
Jon Barry,ESPN Radio,"James, LeBron (CLE)","Durant, Kevin (GSW)","Davis, Anthony (NOP)","Harden, James (HOU)","Lillard, Damian (POR)"
Justin Termine,Sirius Radio,"James, LeBron (CLE)","Durant, Kevin (GSW)","Davis, Anthony (NOP)","Harden, James (HOU)","Lillard, Damian (POR)"
KC Johnson,Chicago Tribune,"Durant, Kevin (GSW)","James, LeBron (CLE)","Davis, Anthony (NOP)","Harden, James (HOU)","Lillard, Damian (POR)"
Keith Pompey,Philadelphia Inquirer,"James, LeBron (CLE)","Davis, Anthony (NOP)","Embiid, Joel (PHI)","Harden, James (HOU)","Westbrook, Russell (OKC)"
Kevin Arnovitz,ESPN.com,"Antetokounmpo, Giannis (MIL)","James, LeBron (CLE)","Davis, Anthony (NOP)","Harden, James (HOU)","Lillard, Damian (POR)"
Kevin Harlan,Turner,"Durant, Kevin (GSW)","James, LeBron (CLE)","Davis, Anthony (NOP)","Harden, James (HOU)","Lillard, Damian (POR)"
Kevin O'Connor,The Ringer,"James, LeBron (CLE)","Aldridge, LaMarcus (SAS)","Davis, Anthony (NOP)","Harden, James (HOU)","Lillard, Damian (POR)"
Kevin Pelton,ESPN.com,"Antetokounmpo, Giannis (MIL)","James, LeBron (CLE)","Davis, Anthony (NOP)","Harden, James (HOU)","Westbrook, Russell (OKC)"
Kristen Ledlow,Turner,"James, LeBron (CLE)","Durant, Kevin (GSW)","Davis, Anthony (NOP)","Westbrook, Russell (OKC)","Harden, James (HOU)"
Kurt Helin,NBCSports.com,"Antetokounmpo, Giannis (MIL)","James, LeBron (CLE)","Davis, Anthony (NOP)","Harden, James (HOU)","Lillard, Damian (POR)"
Lee Jenkins,Sports Illustrated,"James, LeBron (CLE)","Durant, Kevin (GSW)","Davis, Anthony (NOP)","Harden, James (HOU)","Lillard, Damian (POR)"
Lisa Shen Yang,Tencent,"James, LeBron (CLE)","Durant, Kevin (GSW)","Davis, Anthony (NOP)","Harden, James (HOU)","Westbrook, Russell (OKC)"
Manny Navarro,Miami Herald,"James, LeBron (CLE)","Antetokounmpo, Giannis (MIL)","Davis, Anthony (NOP)","Westbrook, Russell (OKC)","Harden, James (HOU)"
Marc Berman,New York Post,"James, LeBron (CLE)","Durant, Kevin (GSW)","Davis, Anthony (NOP)","Lillard, Damian (POR)","Harden, James (HOU)"
Marc Kestecher,ESPN Radio,"James, LeBron (CLE)","Davis, Anthony (NOP)","Embiid, Joel (PHI)","Harden, James (HOU)","Lillard, Damian (POR)"
Mark Jackson,ABC/ESPN,"James, LeBron (CLE)","Durant, Kevin (GSW)","Davis, Anthony (NOP)","Harden, James (HOU)","Westbrook, Russell (OKC)"
Marv Albert,Turner,"James, LeBron (CLE)","Durant, Kevin (GSW)","Davis, Anthony (NOP)","Harden, James (HOU)","Lillard, Damian (POR)"
Matt Velazquez,Milwaukee Journal Sentinel,"James, LeBron (CLE)","Antetokounmpo, Giannis (MIL)","Davis, Anthony (NOP)","Harden, James (HOU)","Lillard, Damian (POR)"
Matt Winer,Turner,"Durant, Kevin (GSW)","James, LeBron (CLE)","Davis, Anthony (NOP)","Harden, James (HOU)","Lillard, Damian (POR)"
Michael Grange,Rogers Sportsnet,"Antetokounmpo, Giannis (MIL)","James, LeBron (CLE)","Davis, Anthony (NOP)","Lillard, Damian (POR)","Harden, James (HOU)"
Michael Wilbon,ABC/ESPN,"James, LeBron (CLE)","Durant, Kevin (GSW)","Davis, Anthony (NOP)","Westbrook, Russell (OKC)","Harden, James (HOU)"
Michelle Beadle,ABC/ESPN,"Durant, Kevin (GSW)","James, LeBron (CLE)","Davis, Anthony (NOP)","Harden, James (HOU)","Lillard, Damian (POR)"
Mike Breen,ABC/ESPN,"James, LeBron (CLE)","Durant, Kevin (GSW)","Davis, Anthony (NOP)","Harden, James (HOU)","Westbrook, Russell (OKC)"
Mike Ganter,Toronto Sun,"James, LeBron (CLE)","Antetokounmpo, Giannis (MIL)","Davis, Anthony (NOP)","Harden, James (HOU)","DeRozan, DeMar (TOR)"
Nira Khurana,Excelsior,"James, LeBron (CLE)","Durant, Kevin (GSW)","Embiid, Joel (PHI)","Harden, James (HOU)","Lillard, Damian (POR)"
Paul Flannery,SB Nation,"James, LeBron (CLE)","Antetokounmpo, Giannis (MIL)","Davis, Anthony (NOP)","Harden, James (HOU)","Lillard, Damian (POR)"
Rachel Nichols,ABC/ESPN,"James, LeBron (CLE)","Durant, Kevin (GSW)","Davis, Anthony (NOP)","Harden, James (HOU)","Lillard, Damian (POR)"
Ramona Shelburne,ESPN.com,"James, LeBron (CLE)","Durant, Kevin (GSW)","Davis, Anthony (NOP)","Harden, James (HOU)","Westbrook, Russell (OKC)"
Reggie Miller,Turner,"James, LeBron (CLE)","Durant, Kevin (GSW)","Davis, Anthony (NOP)","Harden, James (HOU)","Lillard, Damian (POR)"
Ric Bucher,Bleacher Report,"James, LeBron (CLE)","Durant, Kevin (GSW)","Davis, Anthony (NOP)","Harden, James (HOU)","Westbrook, Russell (OKC)"
Richard Walker,Gaston Gazette,"James, LeBron (CLE)","Durant, Kevin (GSW)","Davis, Anthony (NOP)","Harden, James (HOU)","Lillard, Damian (POR)"
Rob Mahoney,Sports Illustrated,"James, LeBron (CLE)","Antetokounmpo, Giannis (MIL)","Davis, Anthony (NOP)","Harden, James (HOU)","Lillard, Damian (POR)"
Rod Beard,Detroit News,"James, LeBron (CLE)","Antetokounmpo, Giannis (MIL)","Davis, Anthony (NOP)","Harden, James (HOU)","Lillard, Damian (POR)"
Ron Tillery,Memphis Commercial Appeal,"Durant, Kevin (GSW)","James, LeBron (CLE)","Davis, Anthony (NOP)","Harden, James (HOU)","Westbrook, Russell (OKC)"
Rosalyn Gold‐Onwude,Turner,"James, LeBron (CLE)","Antetokounmpo, Giannis (MIL)","Davis, Anthony (NOP)","Harden, James (HOU)","Lillard, Damian (POR)"
Royce Young,ESPN.com,"Antetokounmpo, Giannis (MIL)","James, LeBron (CLE)","Davis, Anthony (NOP)","Lillard, Damian (POR)","Harden, James (HOU)"
Sam Amick,USA Today,"Durant, Kevin (GSW)","James, LeBron (CLE)","Davis, Anthony (NOP)","Harden, James (HOU)","Lillard, Damian (POR)"
Scott Bordow,Arizona Republic,"James, LeBron (CLE)","Durant, Kevin (GSW)","Davis, Anthony (NOP)","Harden, James (HOU)","Westbrook, Russell (OKC)"
Sean Deveney,The Sporting News,"Durant, Kevin (GSW)","James, LeBron (CLE)","Davis, Anthony (NOP)","Westbrook, Russell (OKC)","Harden, James (HOU)"
Sekou Smith,NBA.com,"James, LeBron (CLE)","Durant, Kevin (GSW)","Davis, Anthony (NOP)","Harden, James (HOU)","Lillard, Damian (POR)"
Sherrod Blakely,NBC Sports Boston,"Antetokounmpo, Giannis (MIL)","James, LeBron (CLE)","Davis, Anthony (NOP)","Harden, James (HOU)","Lillard, Damian (POR)"
Stefan Bondy,New York Daily News,"Durant, Kevin (GSW)","James, LeBron (CLE)","Davis, Anthony (NOP)","Harden, James (HOU)","Lillard, Damian (POR)"
Steve Aschburner,NBA.com,"James, LeBron (CLE)","Antetokounmpo, Giannis (MIL)","Davis, Anthony (NOP)","Harden, James (HOU)","Lillard, Damian (POR)"
Steve Smith,Turner,"James, LeBron (CLE)","Durant, Kevin (GSW)","Davis, Anthony (NOP)","Harden, James (HOU)","Lillard, Damian (POR)"
Thales Soares,Globoesporte.com,"James, LeBron (CLE)","Durant, Kevin (GSW)","Embiid, Joel (PHI)","Lillard, Damian (POR)","Harden, James (HOU)"
Tim Reynolds,Associated Press,"James, LeBron (CLE)","Durant, Kevin (GSW)","Davis, Anthony (NOP)","Harden, James (HOU)","Westbrook, Russell (OKC)"
TJ Manotoc,ABS‐CBN,"Durant, Kevin (GSW)","James, LeBron (CLE)","Davis, Anthony (NOP)","Lillard, Damian (POR)","Harden, James (HOU)"
Tony Jones,Salt Lake Tribune,"James, LeBron (CLE)","Durant, Kevin (GSW)","Davis, Anthony (NOP)","Lillard, Damian (POR)","Harden, James (HOU)"
Vincent Goodwill,NBC Sports Chicago,"James, LeBron (CLE)","Antetokounmpo, Giannis (MIL)","Davis, Anthony (NOP)","Lillard, Damian (POR)","Harden, James (HOU)"
Weiping Zhang,CCTV,"James, LeBron (CLE)","Durant, Kevin (GSW)","Davis, Anthony (NOP)","Harden, James (HOU)","Westbrook, Russell (OKC)"
Will Guillory,New Orleans Times‐Picayune,"James, LeBron (CLE)","Durant, Kevin (GSW)","Davis, Anthony (NOP)","Harden, James (HOU)","Westbrook, Russell (OKC)"
Xavier Vaution,BeIn Sport,"James, LeBron (CLE)","Antetokounmpo, Giannis (MIL)","Davis, Anthony (NOP)","Lillard, Damian (POR)","Harden, James (HOU)"
Yoko Miyaji,Sports Graphic Number,"James, LeBron (CLE)","Durant, Kevin (GSW)","Davis, Anthony (NOP)","Harden, James (HOU)","Lillard, Damian (POR)"
Zach Lowe,ESPN.com,"James, LeBron (CLE)","Antetokounmpo, Giannis (MIL)","Davis, Anthony (NOP)","Lillard, Damian (POR)","Harden, James (HOU)"
