Affiliation,Affiliation_Class
106.7 The Fan,Local
107.5/1070 The Fan,Local
92.9 FM ESPN/680 AM,Local
ABC Sports,National
Akron Beacon Journal,Local
Altitude Radio Network,Local
Altitude Sports & Entertainment,Local
Arizona Republic,Local
Bay Area News Group/Contra Costa Times,Local
Bergen Record,Local
Bleacher Report,National
Boston Globe,Local
Bulls.com,Local
CBSSports.com,National
Charlotte Observer,Local
Chicago Sun-Times,Local
Chicago Tribune,Local
Comcast SportsNet,Local
Comcast SportsNet Bay Area,Local
Comcast SportsNet Chicago,Local
Comcast SportsNet Mid-Atlantic,Local
Comcast SportsNet NW,Local
Comcast SportsNet-CA,Local
Dallas Morning News,Local
Denver Post,Local
Deseret News,Local
Detroit Free Press,Local
ESPN,National
ESPN 103.3,Local
ESPN 580 AM,Local
ESPN Radio,National
ESPN The Magazine,National
ESPN.com,National
ESPNChicago.com,Local
Fox Sports Arizona,Local
Fox Sports Carolinas/SportSouth,Local
Fox Sports Florida,Local
Fox Sports Indiana,Local
Fox Sports New Orleans,Local
Fox Sports North,Local
Fox Sports Ohio,Local
Fox Sports Oklahoma,Local
Fox Sports Radio/620AM,Local
Fox Sports South,Local
Fox Sports Southwest,Local
Fox Sports Tennessee,Local
Fox Sports Wisconsin,Local
Foxsports.com,National
Ft. Worth Star Telegam,Local
Grantland,National
Hawks Radio Network,Local
Houston Chronicle,Local
Indianapolis Star,Local
KEYH 850 AM,Local
KNBR Radio,Local
KTAR Radio,Local
LA Daily News,Local
Memphis Commercial Appeal,Local
Miami Herald,Local
Milwaukee Journal Sentinel,Local
Minneapolis Star Tribune,Local
Mlive Media Group,Local
MSG Network,Local
NBA TV,National
NBA TV Canada,Local
NBA.com,National
New Orleans Times Picayune,Local
New York Daily News,Local
New York Post,Local
Newsday,National
Northeast Ohio Media Group/Cleveland.com,Local
Oklahoman,Local
Orange County Register,Local
OrlandoMagic.com,Local
Philadelphia Daily News,Local
Philadelphia Inquirer,Local
Prime Ticket,Local
ROOT Sports,Local
Root Sports Southwest,Local
Sacramento Bee,Local
Salt Lake Tribune,Local
San Antonio Express-News,Local
San Francisco Chronicle,Local
Sheridanhoops.com,National
Sirius Radio/New York Daily News,Local
South Florida Sun Sentinel,Local
Sports Illustrated,National
SportsNet/TSN,Local
Sportstalk 790 AM,Local
Sun Sports,Local
The Beast 980 AM FM,Local
The Oregonian,Local
The Record,Local
The Sporting News,National
The Toronto Star,Local
TNT,National
TSN 1050/Sportsnet 590 The Fan,Local
TXA-21/Fox Sports Net,Local
USA Today,National
WAQI Radio,Local
WAXY Radio,Local
WCCO 830-AM,Local
WEEI Radio,Local
WFAN (660),Local
WFNZ-610AM,Local
WMGC / Fox Sports Detroit,Local
WMVP AM 1000,Local
WOAI Radio,Local
WTMJ Radio,Local
WWL 105.3 FM,Local
WWLS / 98.1,Local
Yahoo! Sports,National
YES Network,Local
92.9 FM ESPN/680 AM ESPN,Local
98.5 The Sports Hub,Local
Associated Press,National
Bay Area News Group,Local
Bill Simmons Podcast/HBO,National
Cavaliers Radio,Local
Comcast SportsNet New England,Local
CSNChicago.com,Local
CSNNE.com,Local
Detroit News,Local
ESPN AM 1000,Local
ESPN.com Houston,Local
Fox Sports Southeast,Local
Fox Sports Sun,Local
Hornets Radio,Local
NBA.com/Twitter/Google,National
Palm Beach Post,Local
Sixers Radio,Local
Sixers TV,Local
The Arizona Republic,Local
The Beast 980,Local
The Oklahoman,Local
The Rivard Report,Local
The Undefeated,National
WRNO 99.5 FM,Local
ABC-CBN,International
ABC/ESPN,National
Basketball Insiders,National
BEIN Sport,National
CCTV,International
Cleveland.com,Local
CSN Chicago,Local
CSN New England,Local
CSN Washington,Local
Excelsior,International
Fox Sports,National
Gaston Gazette,Local
LaGazetta Dello Sport,International
Memphis Commercial-Appeal,Local
Milwaukee Journal-Sentinel,Local
Minneapolis Star-Tribune,Local
Moviestar+,International
NBCSports.com,National
Ole,International
Rogers Sportsnet,Local
SB Nation,National
Sirius XM,National
Sky Italia,International
Sports Graphic Number,International
Tencent,International
The Ringer,National
Toronto Sun,Local
Turner,National
ABS‐CBN,International
BeIn Sport,International
Chicago Sun‐Times,Local
Globoesporte.com,International
La Gazetta dello Sport,International
La Gazzetta dello Sport,International
NBC Sports Boston,Local
NBC Sports Chicago,Local
NBC Sports Northwest,Local
NBCSportsWashington.com,Local
New Orleans Times‐Picayune,Local
Periódico Reforma,International
San Antonio Express‐News,Local
Sirius Radio,National
Southern California News Group,Local
The Athletic,National
Yahoo!,National
